<?xml version="1.0"?>
<svg width="16" height="16" xmlns="http://www.w3.org/2000/svg" xmlns:svg="http://www.w3.org/2000/svg">
 <g>
  <title>Layer 1</title>
  <path id="svg_1" d="m10.288904,11.34558l0.482854,0.482854l0.38573,-0.38573l-0.410832,-0.410832c0.165311,-0.190954 0.264611,-0.440838 0.264611,-0.716365l0,-1.630236c0,-0.604515 -0.487759,-1.094462 -1.093909,-1.094462l-0.540138,0c-0.603974,0 -1.093909,0.483936 -1.093909,1.094462l0,1.630236c0,0.604515 0.487759,1.094462 1.093909,1.094462l0.540138,0c0.1304,0 0.255342,-0.022373 0.371545,-0.063836l0,-0.000541l0,-0.000012zm-0.48176,-0.48176l-0.433204,0c-0.303345,0 -0.545043,-0.244427 -0.545043,-0.545596l0,-1.636776c0,-0.303345 0.243886,-0.545596 0.545043,-0.545596l0.546678,0c0.303345,0 0.545043,0.244427 0.545043,0.545596l0,1.636776c0,0.122213 -0.039828,0.235146 -0.106934,0.325718l-0.744737,-0.744737l-0.38573,0.38573l0.578872,0.578872l0.000012,0.000012zm0.658528,-4.910328l0,-1.636776l-3.273552,-3.819148l-5.999885,0c-0.603421,0 -1.092827,0.489947 -1.092827,1.095003l0,12.540449c0,0.605068 0.486124,1.095003 1.089545,1.095003l8.186621,0c0.601786,0 1.089545,-0.489947 1.089545,-1.086275l0,-1.096097l3.815325,0c0.906225,0 1.640599,-0.732186 1.640599,-1.636235l0,-3.820242c0,-0.903496 -0.728916,-1.636235 -1.640599,-1.636235l-3.815325,0l0.000541,0.000541l0.000012,0.000012zm-0.545596,7.0927l0,1.095003c0,0.298981 -0.244427,0.541773 -0.545596,0.541773l-8.183892,0c-0.297346,0 -0.545596,-0.243333 -0.545596,-0.542867l0,-12.55354c0,-0.294617 0.243333,-0.542867 0.543408,-0.542867l5.458112,0l0,2.724686c0,0.610514 0.4883,1.094462 1.090098,1.094462l2.183466,0l0,1.09118l-4.906517,0c-0.906225,0 -1.640599,0.732186 -1.640599,1.636235l0,3.820242c0,0.903496 0.728916,1.636235 1.640599,1.636235l4.906517,0l0,-0.000541zm-2.727968,-11.730241l2.564279,3.000754l-2.02033,0c-0.297899,0 -0.543961,-0.246603 -0.543961,-0.550501l0,-2.450253l0.000012,0zm-2.185101,5.183126l9.28107,0c0.595787,0 1.088463,0.486665 1.088463,1.086816l0,3.827876c0,0.595787 -0.487218,1.086816 -1.088463,1.086816l-9.28107,0c-0.595787,0 -1.088463,-0.486665 -1.088463,-1.086816l0,-3.827876c0,-0.595787 0.487218,-1.086816 1.088463,-1.086816zm1.096638,1.09118c-0.603974,0 -1.093909,0.484489 -1.093909,1.09118c0,0.60288 0.484489,1.09118 1.09118,1.09118l0.540679,0c0.303898,0 0.550501,0.242239 0.550501,0.545596c0,0.301169 -0.241698,0.545596 -0.545043,0.545596l-0.546678,0c-0.301169,0 -0.545043,-0.248791 -0.545043,-0.543408l0,-0.005999l-0.545596,0l0,0.00327c0,0.60288 0.487759,1.091733 1.093909,1.091733l0.540138,0c0.603974,0 1.093909,-0.484489 1.093909,-1.09118c0,-0.60288 -0.484489,-1.09118 -1.09118,-1.09118l-0.540679,0c-0.303898,0 -0.550501,-0.242239 -0.550501,-0.545596c0,-0.301169 0.241698,-0.545596 0.545043,-0.545596l0.546678,0c0.301169,0 0.545043,0.247156 0.545043,0.545596l0.545596,0c0,-0.60288 -0.487759,-1.09118 -1.093909,-1.09118l-0.540138,0l0,-0.000012zm8.181163,3.273552l0,0.545596l-2.727968,0l0,-3.819148l0.545596,0l0,3.273552l2.182372,0z" fill="black"/>
 </g>
</svg>