<?xml version="1.0" encoding="utf-8"?>
<!-- Generator: Adobe Illustrator 20.1.0, SVG Export Plug-In . SVG Version: 6.00 Build 0)  -->
<svg version="1.1" id="Layer_1" xmlns="http://www.w3.org/2000/svg" xmlns:xlink="http://www.w3.org/1999/xlink" x="0px" y="0px"
	 viewBox="0 0 400 400" enable-background="new 0 0 400 400" xml:space="preserve">
<g>
	<path fill="#6BC5AB" d="M93.2,103.9L93.2,103.9l0.4-0.4c0.7-0.7,1.2-1,1.2-1l-0.1-0.1l0.3-0.3L74.6,81.9l-1.8,1.8l18.5,18.5
		c-8.1,7.3-39.4,39.6-39.4,99.2c0,59.4,30.9,91.1,39,98.4l-29.8,29.8c-16.2-17.4-28.9-37.4-37.5-59.4c-8.7-22.1-13.1-45.3-13.1-69.1
		c0-23.8,4.4-47.1,13.1-69.1c7.1-18.2,17.1-35,29.5-50.2l4.6,8.4c0-6.1,2.1-14.2,4.4-20.1c-5.6,3-13.4,6.1-19.4,6.9l8.9,3.5
		c-12.6,15.3-22.6,32.4-29.9,50.8C12.9,153.5,8.4,177,8.4,201.1c0,24.1,4.4,47.6,13.2,69.9c9.1,23.1,22.4,43.9,39.7,61.9l0.1-0.2
		l0.1,0.1l31.4-31.4c0,0,0,0,0,0l0.5-0.6l1.2-1.2l0,0l0.1-0.2c-0.4-0.3-40.3-31.4-40.3-98.1C54.4,142.3,85.6,110.7,93.2,103.9z"/>
</g>
<g>
	<path fill="#6BC5AB" d="M389.7,201.1c0-24.1-4.4-47.6-13.2-69.9c-9.1-23.1-22.4-43.9-39.7-61.9l-0.1,0.2l-0.1-0.1l-31.4,31.4
		c0,0,0,0,0,0l-0.6,0.6l-1.1,1.1l0,0l-0.1,0.2c0.4,0.3,40.3,31.4,40.3,98.1c0,60-32.3,91.8-39.1,97.7l-0.1-0.1l-0.7,0.7
		c-0.3,0.2-0.5,0.4-0.5,0.4l0,0l-0.6,0.6l20.3,20.3l1.8-1.8l-18.5-18.4c7.4-6.6,39.8-38.9,39.8-99.5c0-59.4-30.9-91.1-39-98.4
		L337,72.6c16.2,17.4,28.9,37.4,37.5,59.4c8.7,22.1,13.1,45.3,13.1,69.1s-4.4,47.1-13.1,69.1c-7.1,18.2-17.1,35-29.5,50.2l-4.6-8.4
		c0,6.1-2.1,14.2-4.4,20.1c5.6-3,13.4-6.1,19.4-6.9l-8.9-3.5c12.6-15.3,22.6-32.4,29.9-50.8C385.3,248.7,389.7,225.2,389.7,201.1z"
		/>
</g>
<g>
	<path fill="#6BC5AB" d="M331.1,338.8l0.1-0.1l-31.4-31.4c0,0,0,0,0,0l-0.7-0.6l-1.1-1.1l0,0l-0.2-0.1c-0.3,0.4-31.4,40.3-98.1,40.3
		c-66.7,0-98.5-39.9-98.8-40.3l-0.1,0.1l-0.2-0.2l-20.3,20.3l1.8,1.8l18.5-18.5c7.4,8.1,39.6,39.4,99.2,39.4
		c59.4,0,91.1-30.9,98.4-39l29.8,29.8c-17.4,16.2-37.4,28.9-59.4,37.5c-22.1,8.7-45.3,13.1-69.1,13.1s-47.1-4.4-69.1-13.1
		c-18.2-7.1-35-17.1-50.2-29.5l8.4-4.6c-6.1,0-14.2-2.1-20.1-4.4c3,5.6,6.1,13.4,6.9,19.4l3.5-8.9c15.3,12.6,32.4,22.6,50.8,29.9
		c22.3,8.8,45.8,13.2,69.9,13.2c24.1,0,47.6-4.4,69.9-13.2c23.1-9.1,43.9-22.4,61.9-39.7L331.1,338.8z"/>
</g>
<g>
	<path fill="#6BC5AB" d="M316.4,74.7l-18.5,18.5c-7.5-8.2-39.7-39.3-99.1-39.3c-59.4,0-91.1,30.9-98.4,39L70.6,63.1
		C88,46.9,107.9,34.3,130,25.6c22.1-8.7,45.3-13.1,69.1-13.1c23.8,0,47.1,4.4,69.1,13.1c18.2,7.1,35,17.1,50.2,29.5l-8.4,4.6
		c6.1,0,14.2,2.1,20.1,4.4c-3-5.6-6.1-13.4-6.9-19.4l-3.5,8.9c-15.3-12.6-32.4-22.6-50.8-29.9c-22.3-8.8-45.8-13.2-69.9-13.2
		c-24.1,0-47.6,4.4-69.9,13.2c-23.1,9.1-43.9,22.4-61.9,39.7l0.2,0.1l-0.1,0.1l31.4,31.4c0,0,0,0,0,0l0.6,0.6l1.2,1.2l0,0l0.2,0.1
		c0.3-0.4,31.4-40.3,98.1-40.3c66.7,0,98.5,39.9,98.8,40.3l0.1-0.1l0.2,0.2l1.3-1.3l0.4-0.3c0,0,0,0,0,0l18.6-18.7L316.4,74.7z"/>
</g>
<g>
	<path fill="#305670" d="M201.9,161.1c-23.5-1.4-45,13.3-52.3,35.7c-6.7,20.7,0.3,43.5,17.4,56.8l-14.2,19.5c-0.2,0.3-0.2,0.8,0.2,1
		c0.1,0.1,0.3,0.1,0.4,0.1c0.2,0,0.4-0.1,0.6-0.3l14.6-20.1c0.1-0.1,0-0.2,0.1-0.3c0-0.1,0.1-0.2,0.1-0.3c0-0.1-0.1-0.2-0.1-0.2
		c0-0.1-0.1-0.2-0.1-0.2c-17.1-12.9-24.1-35.3-17.5-55.7c7.1-21.8,28-36.1,50.9-34.7c0.4,0,0.7-0.3,0.8-0.7
		C202.6,161.4,202.3,161.1,201.9,161.1z"/>
	<path fill="#305670" d="M153.4,274.8c-0.3,0-0.5-0.1-0.7-0.2c-0.6-0.4-0.7-1.2-0.3-1.7l13.9-19.1c-17-13.5-23.9-36.4-17.2-57.1
		c7.4-22.7,29.1-37.5,52.8-36.1h0c0.3,0,0.6,0.2,0.9,0.4c0.2,0.2,0.3,0.6,0.3,0.9c0,0.3-0.2,0.6-0.4,0.9c-0.2,0.2-0.6,0.3-0.9,0.3
		c-22.6-1.3-43.3,12.8-50.3,34.4c-6.6,20.2,0.4,42.3,17.3,55.1c0.2,0.1,0.2,0.3,0.3,0.4l0,0c0.1,0.1,0.2,0.2,0.2,0.4
		c0,0.2,0,0.3-0.1,0.4l0,0.1c0,0.1,0,0.3-0.1,0.4l-14.6,20.1C154.2,274.6,153.8,274.8,153.4,274.8z M198.8,161.5
		c-22.1,0-41.8,14.2-48.7,35.5c-6.6,20.4,0.3,43.1,17.2,56.3l0.4,0.3l-14.5,19.9c-0.1,0.1-0.1,0.2,0.1,0.3c0.2,0.1,0.3,0,0.3-0.1
		l14.6-20c0-0.1,0-0.1,0-0.1c0,0,0,0,0-0.1c0,0,0,0,0-0.1c0,0,0-0.1-0.1-0.1c-17.2-13.1-24.3-35.6-17.6-56.2
		c7.2-22,28.3-36.4,51.4-35.1c0.1,0,0.1,0,0.2-0.1c0,0,0.1-0.1,0.1-0.2c0-0.1,0-0.1-0.1-0.2c0,0-0.1-0.1-0.2-0.1h0
		C200.9,161.5,199.8,161.5,198.8,161.5z M168.2,253.6C168.2,253.6,168.2,253.6,168.2,253.6L168.2,253.6z"/>
</g>
<g>
	<path fill="#03A9B5" d="M250.9,273.2l-14.6-20.1c-0.1-0.1-0.2-0.1-0.2-0.1c-0.1,0-0.1-0.1-0.2-0.1c-0.1,0-0.2,0-0.3,0.1
		c-0.1,0-0.2,0-0.3,0.1c-17.6,12.2-41,12-58.4-0.6c-18.6-13.5-25.7-37.8-17.3-59.1c0.1-0.4,0-0.8-0.4-0.9c-0.4-0.1-0.8,0-0.9,0.4
		c-8.6,21.9-1.3,46.9,17.8,60.8c9.1,6.6,19.8,9.9,30.5,9.9c10.1,0,20.2-3,29-8.9l14.2,19.5c0.1,0.2,0.4,0.3,0.6,0.3
		c0.1,0,0.3,0,0.4-0.1C251,274,251.1,273.5,250.9,273.2z"/>
	<path fill="#04A9B5" d="M250.3,274.9c-0.4,0-0.8-0.2-1-0.5l-13.9-19.1c-8.6,5.7-18.6,8.7-28.9,8.7c-11.1,0-21.8-3.5-30.8-10
		c-19.3-14-26.7-39.3-18-61.4c0.2-0.6,1-0.9,1.6-0.7c0.3,0.1,0.5,0.4,0.7,0.7c0.1,0.3,0.1,0.6,0,0.9c-8.3,21.1-1.2,45.2,17.1,58.5
		c17.2,12.5,40.4,12.7,57.8,0.6c0.2-0.1,0.3-0.1,0.4-0.1l0.1,0c0.1,0,0.3-0.1,0.4-0.1c0.2,0,0.3,0.1,0.4,0.2l0,0
		c0.1,0,0.2,0.1,0.4,0.3l14.6,20.1c0.4,0.6,0.3,1.3-0.3,1.7C250.8,274.8,250.5,274.9,250.3,274.9z M235.6,253.8l14.5,19.9
		c0.1,0.1,0.2,0.2,0.3,0c0.1-0.1,0.1-0.2,0.1-0.3l-14.6-20c-0.1,0-0.1,0-0.1-0.1c0,0,0,0-0.1,0c0,0,0,0-0.1,0c0,0-0.1,0-0.1,0
		c-17.7,12.3-41.4,12.1-58.9-0.6c-18.7-13.6-25.9-38.2-17.5-59.7c0-0.1,0-0.1,0-0.2c0,0,0-0.1-0.1-0.1c-0.1,0-0.2,0-0.3,0.1
		c-8.5,21.7-1.3,46.5,17.6,60.2c8.8,6.4,19.3,9.8,30.2,9.8c10.3,0,20.2-3,28.7-8.8L235.6,253.8z M235.9,253.4
		C235.9,253.4,235.9,253.4,235.9,253.4L235.9,253.4z"/>
</g>
<g>
	<path fill="#20AF5D" d="M280,180.8l-23.6,7.7c-0.1,0-0.1,0.1-0.2,0.2c-0.1,0.1-0.2,0.1-0.2,0.2c0,0.1,0,0.2,0,0.3
		c0,0.1-0.1,0.2,0,0.3c6.2,20.5-1.3,42.7-18.6,55.3c-18.6,13.5-43.9,12.7-61.5-1.8c-0.3-0.3-0.8-0.2-1,0.1c-0.3,0.3-0.2,0.8,0.1,1
		c9.5,7.8,21.2,11.8,32.9,11.8c10.7,0,21.4-3.3,30.5-9.9c17.6-12.8,25.3-35.3,19.3-56.2l23-7.5c0.4-0.1,0.6-0.5,0.5-0.9
		C280.8,180.9,280.4,180.7,280,180.8z"/>
	<path fill="#1DAF5C" d="M207.7,256.3c-12.1,0-23.9-4.2-33.2-11.9c-0.3-0.2-0.4-0.5-0.4-0.8c0-0.3,0.1-0.6,0.3-0.9
		c0.2-0.3,0.5-0.4,0.8-0.4c0.3,0,0.7,0.1,0.9,0.3c17.5,14.4,42.6,15.1,60.9,1.8c17.2-12.5,24.6-34.5,18.4-54.8c-0.1-0.2,0-0.4,0-0.4
		l0-0.1c0-0.1,0-0.3,0.1-0.4c0.1-0.2,0.2-0.3,0.3-0.3l0,0c0.1-0.1,0.2-0.2,0.4-0.3l23.6-7.7c0.6-0.2,1.3,0.1,1.6,0.8
		c0.1,0.3,0.1,0.6-0.1,0.9c-0.1,0.3-0.4,0.5-0.7,0.6l-22.5,7.3c5.8,20.9-2,43.5-19.6,56.3C229.5,252.8,218.9,256.3,207.7,256.3z
		 M175.3,243.2C175.3,243.2,175.3,243.2,175.3,243.2c-0.1,0-0.1,0-0.2,0.1c-0.1,0.1-0.1,0.1-0.1,0.2c0,0,0,0.1,0.1,0.2
		c9.1,7.5,20.7,11.7,32.5,11.7c10.9,0,21.3-3.4,30.2-9.8c17.4-12.6,25.1-35,19.1-55.7l-0.1-0.5l23.4-7.6c0.1,0,0.1-0.1,0.1-0.1
		c0,0,0-0.1,0-0.2c0-0.1-0.2-0.2-0.3-0.1l-23.5,7.6c0,0-0.1,0.1-0.1,0.1c0,0,0,0-0.1,0c0,0,0,0,0,0.1c0,0,0,0.1,0,0.1
		c6.2,20.7-1.3,43.1-18.8,55.8c-18.7,13.6-44.3,12.9-62.2-1.8C175.4,243.2,175.4,243.2,175.3,243.2z"/>
</g>
<g>
	<path fill="#F7A501" d="M250.1,184.4c-6.7-20.7-25.8-35-47.5-35.8v-24.1c0-0.4-0.3-0.7-0.7-0.7s-0.7,0.3-0.7,0.7v24.8
		c0,0.1,0.1,0.2,0.1,0.2c0,0.1,0,0.2,0.1,0.3c0.1,0.1,0.2,0.1,0.3,0.1c0.1,0,0.1,0.1,0.2,0.1c21.4,0.4,40.2,14.4,46.9,34.8
		c7.1,21.8-1.4,45.6-20.7,58c-0.3,0.2-0.4,0.7-0.2,1c0.1,0.2,0.4,0.3,0.6,0.3c0.1,0,0.3,0,0.4-0.1
		C248.7,231.4,257.4,206.9,250.1,184.4z"/>
	<path fill="#F7A501" d="M228.4,244.7c-0.4,0-0.8-0.2-1-0.6c-0.4-0.6-0.2-1.3,0.4-1.7c19.1-12.2,27.6-35.8,20.5-57.4
		c-6.6-20.2-25.2-34-46.4-34.4c-0.2,0-0.3-0.1-0.4-0.1l-0.1,0c-0.1,0-0.3-0.1-0.4-0.2c-0.1-0.1-0.2-0.3-0.2-0.4l0-0.1
		c0-0.1-0.1-0.2-0.1-0.4v-24.8c0-0.7,0.6-1.2,1.2-1.2s1.2,0.6,1.2,1.2v23.7c21.7,0.9,40.8,15.4,47.5,36.1
		c7.4,22.7-1.5,47.4-21.6,60.2C228.9,244.6,228.6,244.7,228.4,244.7z M202,149.6c21.6,0.5,40.6,14.6,47.3,35.1
		c7.2,22-1.5,46.1-21,58.6c-0.1,0.1-0.1,0.2-0.1,0.3c0.1,0.1,0.2,0.1,0.3,0.1c19.7-12.6,28.4-36.9,21.1-59.1l0,0
		c-6.6-20.4-25.5-34.7-47-35.4l-0.5,0v-24.6c0-0.1-0.1-0.2-0.2-0.2c-0.1,0-0.2,0.1-0.2,0.2v24.8c0,0.1,0,0.1,0.1,0.1c0,0,0,0,0,0.1
		c0,0,0,0,0.1,0C201.9,149.5,201.9,149.6,202,149.6z M201.9,149.6C201.9,149.6,201.9,149.6,201.9,149.6
		C201.9,149.6,201.9,149.6,201.9,149.6z"/>
</g>
<g>
	<path fill="#F15B38" d="M195.4,154.1c-21.8,0-41.3,13.7-48.7,34.1l-23-7.5c-0.4-0.1-0.8,0.1-0.9,0.5c-0.1,0.4,0.1,0.8,0.5,0.9
		l23.6,7.7c0.1,0,0.2,0,0.2,0c0.1,0,0.1,0,0.2-0.1c0.1,0,0.1,0,0.1,0c0.1-0.1,0.2-0.2,0.3-0.3c0,0,0,0,0,0
		c7-20.2,26.1-33.8,47.6-33.8c22.9,0,43,15.5,48.7,37.6c0.1,0.3,0.4,0.5,0.7,0.5c0.1,0,0.1,0,0.2,0c0.4-0.1,0.6-0.5,0.5-0.9
		C239.6,170,219,154.1,195.4,154.1z"/>
	<path fill="#FF5A30" d="M244.8,194.2c-0.6,0-1.1-0.4-1.2-0.9c-5.7-21.9-25.5-37.3-48.2-37.3c-21.2,0-40.1,13.5-47.1,33.5l0,0.1
		l-0.1,0c-0.1,0.2-0.3,0.4-0.5,0.5c-0.1,0.1-0.2,0.1-0.2,0.1c-0.1,0-0.2,0.1-0.4,0.1c-0.1,0-0.3,0-0.4-0.1l-23.6-7.7
		c-0.3-0.1-0.6-0.3-0.7-0.6c-0.1-0.3-0.2-0.6-0.1-0.9c0.1-0.3,0.3-0.6,0.6-0.7c0.3-0.2,0.6-0.2,0.9-0.1l22.5,7.3
		c7.6-20.4,27.2-34,49-34c23.8,0,44.6,16.1,50.6,39.1c0.1,0.3,0,0.7-0.1,0.9s-0.4,0.5-0.8,0.6C245,194.2,244.9,194.2,244.8,194.2z
		 M195.4,155c23.2,0,43.4,15.6,49.2,38c0,0.1,0.2,0.2,0.3,0.2c0.1,0,0.2-0.2,0.2-0.3c-5.9-22.6-26.3-38.4-49.7-38.4
		c-21.5,0-40.9,13.6-48.2,33.8l-0.2,0.5l-23.4-7.6c-0.1,0-0.1,0-0.2,0c0,0-0.1,0.1-0.1,0.1c0,0.1,0,0.1,0,0.2c0,0,0.1,0.1,0.1,0.1
		l23.6,7.7c0,0,0,0,0,0c0,0,0.1,0,0.1,0c0,0,0.1,0,0.1,0c0,0,0,0,0.1-0.1l0.1-0.1C154.5,168.7,173.8,155,195.4,155z M147.2,189.3
		C147.2,189.3,147.2,189.3,147.2,189.3C147.2,189.3,147.2,189.3,147.2,189.3z"/>
</g>
<g>
	<g>
		<path fill="#FFFFFF" d="M171.1,203c0.8-0.1,2-0.2,3.6-0.2c1.6,0,2.8,0.3,3.6,0.9c0.7,0.6,1.3,1.6,1.3,2.7s-0.4,2.1-1.1,2.8
			c-0.9,0.9-2.2,1.2-3.8,1.2c-0.3,0-0.7,0-0.9-0.1v4.2h-2.6V203z M173.7,208.3c0.2,0.1,0.5,0.1,0.9,0.1c1.4,0,2.3-0.7,2.3-1.9
			c0-1.1-0.7-1.7-2.1-1.7c-0.5,0-0.9,0.1-1.1,0.1V208.3z"/>
	</g>
	<g>
		<path fill="#FFFFFF" d="M182.8,211.5l-0.8,3h-2.7l3.6-11.7h3.5l3.6,11.7h-2.8l-0.9-3H182.8z M185.8,209.6l-0.7-2.5
			c-0.2-0.7-0.4-1.6-0.6-2.3h0c-0.2,0.7-0.3,1.6-0.5,2.3l-0.7,2.5H185.8z"/>
	</g>
	<g>
		<path fill="#FFFFFF" d="M192.3,205.1h-3.1v-2.2h9v2.2H195v9.5h-2.7V205.1z"/>
	</g>
	<g>
		<path fill="#FFFFFF" d="M202.2,202.8v11.7h-2.7v-11.7H202.2z"/>
	</g>
	<g>
		<path fill="#FFFFFF" d="M211.5,209.6h-4.3v2.8h4.8v2.2h-7.5v-11.7h7.2v2.2h-4.6v2.4h4.3V209.6z"/>
	</g>
	<g>
		<path fill="#FFFFFF" d="M213.8,214.5v-11.7h3.1l2.4,4.3c0.7,1.2,1.4,2.7,1.9,4h0.1c-0.2-1.5-0.2-3.1-0.2-4.9v-3.4h2.4v11.7h-2.8
			l-2.5-4.5c-0.7-1.3-1.5-2.8-2-4.1l-0.1,0c0.1,1.5,0.1,3.2,0.1,5.1v3.5H213.8z"/>
	</g>
	<g>
		<path fill="#FFFFFF" d="M228.1,205.1h-3.1v-2.2h9v2.2h-3.2v9.5h-2.7V205.1z"/>
	</g>
</g>
<g>
	<g>
		<path fill="#FFFFFF" d="M131.9,44.3l3.3,7.5l-1.7,0.7l-3.3-7.5L131.9,44.3z"/>
	</g>
	<g>
		<path fill="#FFFFFF" d="M135,47.4c-0.3-0.7-0.5-1.3-0.7-1.7l1.4-0.6l0.4,0.7l0,0c0.1-0.4,0.4-1.1,1.3-1.5c0.7-0.3,1.4-0.1,1.9,0.4
			l0,0c0.1-0.4,0.3-0.7,0.5-0.9c0.2-0.3,0.5-0.5,0.9-0.7c1.1-0.4,2.2,0,2.8,1.7l1.3,3.3l-1.7,0.6l-1.2-3c-0.3-0.8-0.7-1.2-1.3-1
			c-0.4,0.2-0.6,0.5-0.6,0.9c0,0.1,0,0.3,0.1,0.5l1.2,3.2l-1.7,0.6l-1.2-3.1c-0.3-0.7-0.7-1.1-1.2-0.9c-0.4,0.2-0.6,0.6-0.6,0.9
			c0,0.2,0,0.3,0.1,0.5l1.2,3.2l-1.7,0.6L135,47.4z"/>
	</g>
	<g>
		<path fill="#FFFFFF" d="M144.9,43.8c-0.2-0.7-0.5-1.4-0.7-1.9l1.5-0.5l0.3,0.8l0,0c0.2-0.7,0.8-1.3,1.6-1.5
			c1.2-0.4,2.7,0.3,3.3,2.1c0.7,2-0.3,3.4-1.6,3.9c-0.7,0.2-1.3,0.1-1.7-0.2l0,0l0.9,2.8l-1.8,0.6L144.9,43.8z M147.1,44.5
			c0,0.1,0.1,0.3,0.2,0.4c0.3,0.4,0.8,0.7,1.3,0.5c0.8-0.2,1-1,0.7-2c-0.3-0.9-0.9-1.4-1.7-1.2c-0.5,0.2-0.8,0.7-0.8,1.2
			c0,0.1,0,0.2,0.1,0.3L147.1,44.5z"/>
	</g>
	<g>
		<path fill="#FFFFFF" d="M151.8,41.5c-0.2-0.8-0.4-1.4-0.6-1.9l1.5-0.4l0.4,1l0,0c0.1-0.9,0.7-1.5,1.2-1.6c0.2,0,0.2-0.1,0.4-0.1
			l0.5,1.7c-0.1,0-0.3,0-0.5,0.1c-0.7,0.2-1,0.7-1,1.2c0,0.1,0,0.3,0.1,0.4l0.8,2.9l-1.8,0.5L151.8,41.5z"/>
	</g>
	<g>
		<path fill="#FFFFFF" d="M162.1,39.7c0.5,2.1-0.7,3.4-2.3,3.8c-1.7,0.4-3.3-0.4-3.7-2.2c-0.5-1.9,0.5-3.4,2.3-3.8
			C160.2,37.1,161.7,38,162.1,39.7z M158,40.8c0.2,1,0.8,1.6,1.6,1.4c0.7-0.2,1-1,0.7-2c-0.2-0.9-0.8-1.6-1.6-1.4
			C157.9,39,157.8,40,158,40.8z"/>
	</g>
	<g>
		<path fill="#FFFFFF" d="M163.9,36.4l1.3,2.5c0.2,0.5,0.4,0.9,0.6,1.3l0,0c0-0.5,0-1,0-1.5l0.2-2.8l1.9-0.4l-1,6.3l-1.8,0.4
			l-3.3-5.4L163.9,36.4z"/>
	</g>
	<g>
		<path fill="#FFFFFF" d="M170.8,38.7c0.2,0.7,1,1,1.8,0.8c0.6-0.1,1.1-0.3,1.6-0.5l0.4,1.2c-0.6,0.3-1.3,0.6-2.1,0.7
			c-2,0.3-3.3-0.6-3.6-2.4c-0.3-1.5,0.4-3.3,2.4-3.6c1.9-0.3,2.9,1,3.1,2.5c0.1,0.3,0.1,0.6,0.1,0.7L170.8,38.7z M172.8,37.1
			c-0.1-0.4-0.4-1.2-1.2-1c-0.8,0.1-1,0.9-0.9,1.4L172.8,37.1z"/>
	</g>
	<g>
		<path fill="#FFFFFF" d="M180.7,30.9l0.9,6.8c0.1,0.7,0.2,1.4,0.3,1.7l-1.6,0.2l-0.2-0.9l0,0c-0.3,0.7-1,1.1-1.7,1.2
			c-1.4,0.2-2.7-0.9-2.9-2.7c-0.3-2,0.8-3.3,2.2-3.5c0.7-0.1,1.3,0.1,1.6,0.5l0,0l-0.4-3.2L180.7,30.9z M179.5,36.3
			c0-0.1,0-0.2-0.1-0.3c-0.2-0.5-0.6-0.8-1.2-0.8c-0.8,0.1-1.2,0.9-1,1.8c0.1,1,0.7,1.6,1.5,1.5c0.5-0.1,0.9-0.5,0.9-1
			c0-0.1,0-0.3,0-0.4L179.5,36.3z"/>
	</g>
	<g>
		<path fill="#FFFFFF" d="M191.6,38.4c-0.3,0.2-1.1,0.4-2.1,0.5c-2.8,0.2-4.4-1.5-4.6-3.8c-0.2-2.8,1.7-4.5,4.1-4.6
			c1-0.1,1.7,0.1,2,0.2l-0.3,1.5c-0.4-0.1-0.9-0.2-1.6-0.2c-1.5,0.1-2.5,1.1-2.4,2.9c0.1,1.6,1.2,2.6,2.8,2.5c0.6,0,1.2-0.2,1.5-0.4
			L191.6,38.4z"/>
	</g>
	<g>
		<path fill="#FFFFFF" d="M192.3,30l1.8-0.1l0.3,8.6l-1.8,0.1L192.3,30z"/>
	</g>
	<g>
		<path fill="#FFFFFF" d="M197.7,30.9c0,0.5-0.4,0.9-1,0.9c-0.6,0-1-0.4-1-0.9c0-0.5,0.4-0.9,1-1C197.3,30,197.7,30.4,197.7,30.9z
			 M196,38.5l-0.1-5.9l1.8,0l0.1,5.9L196,38.5z"/>
	</g>
	<g>
		<path fill="#FFFFFF" d="M199.3,34.4c0-0.7,0-1.4,0-1.9l1.6,0l0.1,0.8l0,0c0.2-0.4,0.9-0.9,1.8-0.9c1.2,0,2.1,0.8,2.1,2.6l-0.1,3.5
			l-1.8,0l0.1-3.3c0-0.8-0.2-1.3-0.9-1.3c-0.5,0-0.8,0.3-0.9,0.7c-0.1,0.1-0.1,0.3-0.1,0.5l-0.1,3.4l-1.8,0L199.3,34.4z"/>
	</g>
	<g>
		<path fill="#FFFFFF" d="M206.2,38.6l0.2-5.9l1.8,0.1l-0.2,5.9L206.2,38.6z M208.5,31.1c0,0.5-0.4,0.9-1,0.9c-0.6,0-1-0.5-0.9-1
			c0-0.5,0.4-0.9,1-0.9C208.1,30.1,208.5,30.6,208.5,31.1z"/>
	</g>
	<g>
		<path fill="#FFFFFF" d="M214,38.9c-0.3,0.1-1,0.2-1.7,0.2c-1.9-0.1-3.1-1.4-2.9-3.2c0.1-1.7,1.4-3.1,3.6-2.9c0.5,0,1,0.2,1.4,0.3
			l-0.4,1.3c-0.2-0.1-0.5-0.2-1-0.2c-1-0.1-1.6,0.6-1.7,1.5c-0.1,1.1,0.6,1.7,1.5,1.8c0.4,0,0.8,0,1.1-0.1L214,38.9z"/>
	</g>
	<g>
		<path fill="#FFFFFF" d="M218.3,39.4l0-0.6l0,0c-0.4,0.4-1.1,0.6-1.8,0.6c-1.2-0.1-1.8-1.1-1.7-2c0.2-1.5,1.6-2.1,3.7-1.9l0-0.1
			c0-0.3-0.1-0.8-1-0.9c-0.6-0.1-1.3,0.1-1.7,0.3l-0.2-1.2c0.4-0.2,1.3-0.4,2.3-0.3c2,0.2,2.5,1.4,2.3,2.8l-0.2,2
			c-0.1,0.6-0.1,1.1-0.1,1.4L218.3,39.4z M218.4,36.6c-1-0.1-1.7,0-1.8,0.8c0,0.5,0.2,0.7,0.7,0.8c0.5,0,0.9-0.2,1-0.6
			c0-0.1,0.1-0.2,0.1-0.3L218.4,36.6z"/>
	</g>
	<g>
		<path fill="#FFFFFF" d="M222.4,31.3l1.8,0.2l-1.1,8.5l-1.8-0.2L222.4,31.3z"/>
	</g>
	<g>
		<path fill="#FFFFFF" d="M235,37.8c-0.5,2.6-2.4,3.9-4.7,3.5c-2.4-0.4-3.4-2.5-3-4.8c0.4-2.4,2.3-3.9,4.7-3.5
			C234.4,33.5,235.4,35.6,235,37.8z M229.2,36.9c-0.3,1.6,0.2,2.8,1.5,3c1.2,0.2,2.1-0.8,2.4-2.4c0.3-1.4-0.2-2.8-1.5-3
			C230.4,34.3,229.5,35.3,229.2,36.9z"/>
	</g>
	<g>
		<path fill="#FFFFFF" d="M241.2,41.6c-0.2,0.8-0.3,1.4-0.4,1.9l-1.6-0.4l0.1-0.8l0,0c-0.3,0.3-1,0.8-2,0.5c-1.2-0.3-1.9-1.2-1.4-3
			l0.8-3.4l1.8,0.4l-0.7,3.1c-0.2,0.8,0,1.4,0.6,1.6c0.5,0.1,0.9-0.2,1-0.4c0.1-0.1,0.1-0.2,0.1-0.4l0.8-3.4l1.8,0.4L241.2,41.6z"/>
	</g>
	<g>
		<path fill="#FFFFFF" d="M246.2,37l-0.4,1.6L247,39l-0.4,1.3l-1.3-0.3l-0.6,2.1c-0.2,0.7-0.1,1.1,0.4,1.2c0.2,0.1,0.4,0.1,0.5,0.1
			l-0.4,1.3c-0.3,0-0.7,0-1.2-0.2c-0.6-0.2-1-0.5-1.2-0.9c-0.2-0.4-0.3-1,0-1.8l0.6-2.3l-0.8-0.2l0.4-1.3l0.8,0.2l0.3-1.2L246.2,37z
			"/>
	</g>
	<g>
		<path fill="#FFFFFF" d="M250.6,46.1c-0.4,0-1,0-1.7-0.2c-1.8-0.6-2.7-2-2.1-3.8c0.5-1.7,2-2.7,4.2-2c0.5,0.1,1,0.4,1.3,0.6
			l-0.7,1.2c-0.2-0.2-0.5-0.3-0.9-0.5c-0.9-0.3-1.7,0.2-2,1.1c-0.3,1,0.2,1.8,1.1,2.1c0.4,0.1,0.8,0.2,1.1,0.1L250.6,46.1z"/>
	</g>
	<g>
		<path fill="#FFFFFF" d="M257.9,45.5c-0.7,2.1-2.5,2.5-4,2c-1.6-0.6-2.5-2.1-1.9-3.9c0.6-1.8,2.2-2.6,4-1.9
			C257.7,42.2,258.5,43.8,257.9,45.5z M253.8,44.2c-0.3,1-0.2,1.8,0.6,2.1c0.7,0.2,1.3-0.3,1.7-1.3c0.3-0.8,0.3-1.8-0.5-2.1
			C254.7,42.6,254.1,43.3,253.8,44.2z"/>
	</g>
	<g>
		<path fill="#FFFFFF" d="M259.4,44.9c0.3-0.7,0.5-1.3,0.7-1.8l1.4,0.6l-0.2,0.8l0,0c0.4-0.3,1.1-0.6,2-0.2c0.7,0.3,1.1,0.9,1.1,1.5
			l0,0c0.3-0.2,0.7-0.3,1-0.4c0.4-0.1,0.7,0,1.2,0.1c1.1,0.4,1.6,1.5,0.9,3.1l-1.3,3.2l-1.7-0.7l1.2-3c0.3-0.8,0.2-1.4-0.3-1.6
			c-0.4-0.2-0.8,0-1,0.3c-0.1,0.1-0.2,0.3-0.2,0.4l-1.3,3.2l-1.7-0.7l1.2-3.1c0.3-0.7,0.2-1.3-0.3-1.5c-0.4-0.2-0.8,0.1-1,0.3
			c-0.1,0.1-0.2,0.3-0.2,0.4l-1.3,3.2l-1.7-0.7L259.4,44.9z"/>
	</g>
	<g>
		<path fill="#FFFFFF" d="M269.7,51c-0.3,0.7,0.3,1.4,1,1.7c0.6,0.3,1.1,0.4,1.6,0.5l-0.3,1.2c-0.7,0-1.4-0.2-2.1-0.6
			c-1.8-0.8-2.4-2.4-1.6-4.1c0.6-1.4,2.2-2.5,4-1.6c1.7,0.8,1.8,2.5,1.2,3.8c-0.1,0.3-0.3,0.5-0.4,0.6L269.7,51z M272.2,50.8
			c0.2-0.4,0.3-1.2-0.4-1.5c-0.7-0.3-1.3,0.2-1.5,0.6L272.2,50.8z"/>
	</g>
	<g>
		<path fill="#FFFFFF" d="M273.9,53.8c0.2,0.3,0.7,0.9,1.2,1.1c0.5,0.3,0.8,0.2,0.9-0.1c0.1-0.3,0-0.5-0.5-1c-0.9-0.9-1-1.7-0.7-2.3
			c0.5-1,1.7-1.3,3-0.6c0.6,0.3,1.1,0.7,1.3,1.1l-0.9,1c-0.2-0.2-0.5-0.7-1-0.9c-0.4-0.2-0.7-0.2-0.8,0.1c-0.1,0.2,0,0.5,0.5,1
			c0.8,0.9,1,1.6,0.6,2.4c-0.5,1-1.6,1.3-3.2,0.6c-0.7-0.3-1.2-0.8-1.5-1.2L273.9,53.8z"/>
	</g>
</g>
<g>
	<g>
		<path fill="#FFFFFF" d="M356.5,129.2l-7.5,3.2l-0.7-1.7l7.5-3.2L356.5,129.2z"/>
	</g>
	<g>
		<path fill="#FFFFFF" d="M353.4,132.3c0.7-0.3,1.3-0.5,1.7-0.7l0.6,1.4l-0.7,0.4l0,0c0.4,0.1,1.1,0.4,1.5,1.3
			c0.3,0.7,0.1,1.4-0.4,1.9l0,0c0.4,0.1,0.7,0.3,0.9,0.5c0.3,0.2,0.5,0.5,0.7,0.9c0.4,1.1,0,2.2-1.7,2.8l-3.3,1.2l-0.6-1.7l3-1.2
			c0.8-0.3,1.2-0.7,1-1.3c-0.2-0.4-0.5-0.6-0.9-0.6c-0.1,0-0.3,0-0.5,0.1l-3.2,1.2l-0.6-1.7l3.1-1.2c0.7-0.3,1.1-0.7,0.9-1.2
			c-0.2-0.4-0.6-0.6-0.9-0.6c-0.2,0-0.3,0-0.5,0.1l-3.2,1.2l-0.6-1.7L353.4,132.3z"/>
	</g>
	<g>
		<path fill="#FFFFFF" d="M357,142.2c0.7-0.2,1.4-0.5,1.9-0.7l0.5,1.5l-0.8,0.3l0,0c0.7,0.2,1.3,0.8,1.5,1.6
			c0.4,1.2-0.3,2.7-2.1,3.3c-2.1,0.7-3.4-0.3-3.8-1.6c-0.2-0.7-0.1-1.3,0.2-1.7l0,0l-2.8,0.9l-0.6-1.8L357,142.2z M356.2,144.4
			c-0.1,0-0.3,0.1-0.4,0.2c-0.4,0.3-0.7,0.8-0.5,1.3c0.2,0.8,1,1,2,0.7c0.9-0.3,1.4-0.9,1.2-1.7c-0.2-0.5-0.7-0.8-1.2-0.8
			c-0.1,0-0.2,0-0.3,0.1L356.2,144.4z"/>
	</g>
	<g>
		<path fill="#FFFFFF" d="M359.2,149.2c0.8-0.2,1.4-0.4,1.9-0.6l0.4,1.5l-1,0.4l0,0c0.9,0.1,1.5,0.7,1.6,1.2c0,0.2,0.1,0.2,0.1,0.4
			l-1.7,0.5c0-0.1,0-0.3-0.1-0.5c-0.2-0.7-0.7-1-1.2-1c-0.1,0-0.3,0-0.4,0.1l-2.9,0.8l-0.5-1.8L359.2,149.2z"/>
	</g>
	<g>
		<path fill="#FFFFFF" d="M360.9,159.5c-2.1,0.5-3.4-0.7-3.8-2.3c-0.4-1.7,0.4-3.3,2.2-3.7c1.9-0.5,3.4,0.5,3.8,2.3
			C363.6,157.6,362.7,159.1,360.9,159.5z M359.8,155.4c-1,0.2-1.6,0.8-1.4,1.6c0.2,0.7,1,1,2,0.7c0.9-0.2,1.6-0.8,1.4-1.6
			C361.6,155.2,360.7,155.1,359.8,155.4z"/>
	</g>
	<g>
		<path fill="#FFFFFF" d="M364.3,161.3l-2.5,1.3c-0.5,0.2-0.9,0.4-1.3,0.6l0,0c0.5,0,1,0,1.5,0l2.8,0.2l0.4,1.9l-6.2-1l-0.4-1.8
			l5.4-3.3L364.3,161.3z"/>
	</g>
	<g>
		<path fill="#FFFFFF" d="M362,168.2c-0.7,0.2-1,1-0.8,1.8c0.1,0.6,0.3,1.1,0.5,1.6l-1.2,0.4c-0.3-0.6-0.6-1.3-0.7-2.1
			c-0.3-2,0.6-3.3,2.5-3.6c1.5-0.2,3.3,0.4,3.6,2.4c0.3,1.9-1,2.9-2.5,3.1c-0.3,0.1-0.6,0.1-0.7,0.1L362,168.2z M363.6,170.1
			c0.4-0.1,1.2-0.4,1-1.2c-0.1-0.8-0.9-1-1.4-0.9L363.6,170.1z"/>
	</g>
	<g>
		<path fill="#FFFFFF" d="M369.7,178.1l-6.8,0.9c-0.7,0.1-1.4,0.2-1.7,0.3l-0.2-1.6l0.9-0.2l0,0c-0.7-0.3-1.1-1-1.2-1.7
			c-0.2-1.4,0.9-2.7,2.7-2.9c2-0.3,3.3,0.8,3.5,2.2c0.1,0.7-0.1,1.3-0.5,1.6l0,0l3.2-0.4L369.7,178.1z M364.3,176.9
			c0.1,0,0.2,0,0.3-0.1c0.5-0.2,0.8-0.6,0.8-1.2c-0.1-0.8-0.9-1.2-1.8-1.1c-1,0.1-1.6,0.7-1.5,1.5c0.1,0.5,0.5,0.9,1,0.9
			c0.1,0,0.3,0,0.4,0L364.3,176.9z"/>
	</g>
	<g>
		<path fill="#FFFFFF" d="M369.6,182.4c0.1,0.6,0.3,1.4,0.3,2.5c0.1,1.1-0.1,2-0.5,2.5c-0.4,0.5-1,0.9-1.8,1c-0.8,0.1-1.5-0.2-2-0.6
			c-0.6-0.6-1-1.5-1-2.6c0-0.2,0-0.5,0-0.6l-2.9,0.2l-0.1-1.8L369.6,182.4z M366,184.5c0,0.2,0,0.4,0,0.6c0.1,1,0.6,1.5,1.4,1.5
			c0.7-0.1,1.2-0.6,1.1-1.5c0-0.4-0.1-0.6-0.1-0.8L366,184.5z"/>
	</g>
	<g>
		<path fill="#FFFFFF" d="M362.1,193l0.6-0.1l0,0c-0.5-0.4-0.8-1-0.8-1.7c0-1.2,0.8-1.9,1.8-2c1.5,0,2.3,1.3,2.4,3.4l0.1,0
			c0.3,0,0.8-0.2,0.7-1.1c0-0.6-0.2-1.2-0.5-1.6l1.2-0.4c0.2,0.4,0.6,1.2,0.6,2.3c0.1,2-1.1,2.6-2.5,2.7l-2.1,0.1
			c-0.6,0-1.1,0.1-1.4,0.1L362.1,193z M364.8,192.7c0-1-0.3-1.7-1-1.7c-0.5,0-0.7,0.3-0.7,0.7c0,0.5,0.3,0.8,0.7,0.9
			c0.1,0,0.2,0,0.3,0L364.8,192.7z"/>
	</g>
	<g>
		<path fill="#FFFFFF" d="M369.7,198l-1.7,0l0,1.3l-1.4,0l0-1.3l-2.1,0c-0.7,0-1,0.2-1.1,0.7c0,0.2,0,0.4,0,0.5l-1.4,0
			c-0.1-0.2-0.1-0.7-0.1-1.2c0-0.6,0.2-1.1,0.5-1.4c0.4-0.3,0.9-0.5,1.8-0.5l2.4,0l0-0.8l1.4,0l0,0.8l1.3,0L369.7,198z"/>
	</g>
	<g>
		<path fill="#FFFFFF" d="M362.1,200.3l5.9,0.1l0,1.8l-5.9-0.1L362.1,200.3z M369.6,202.4c-0.5,0-0.9-0.4-0.9-1c0-0.6,0.4-1,0.9-0.9
			c0.5,0,0.9,0.4,0.9,1C370.5,202,370.1,202.4,369.6,202.4z"/>
	</g>
	<g>
		<path fill="#FFFFFF" d="M364.3,205.1c-0.8,0-1.2,0.8-1.2,1.6c0,0.6,0,1.1,0.2,1.6l-1.3,0.2c-0.2-0.6-0.3-1.4-0.3-2.2
			c0.1-2,1.3-3.1,3.2-3c1.5,0.1,3.1,1.1,3,3.2c-0.1,1.9-1.6,2.6-3.1,2.5c-0.3,0-0.6-0.1-0.7-0.1L364.3,205.1z M365.5,207.3
			c0.4,0,1.2-0.1,1.3-1c0-0.8-0.6-1.1-1.1-1.2L365.5,207.3z"/>
	</g>
	<g>
		<path fill="#FFFFFF" d="M365.7,210.2c0.7,0.1,1.4,0.1,1.9,0.1l-0.1,1.6l-0.8,0l0,0c0.4,0.3,0.9,0.9,0.8,1.9c-0.1,1.2-1,2-2.7,1.9
			l-3.5-0.3l0.2-1.8l3.3,0.3c0.8,0.1,1.3-0.1,1.4-0.8c0-0.5-0.3-0.8-0.6-1c-0.1-0.1-0.3-0.1-0.5-0.1l-3.4-0.3l0.2-1.8L365.7,210.2z"
			/>
	</g>
	<g>
		<path fill="#FFFFFF" d="M368.3,219.8l-1.7-0.2l-0.2,1.3l-1.3-0.2l0.2-1.3l-2.1-0.3c-0.7-0.1-1.1,0-1.1,0.6c0,0.2,0,0.4,0,0.5
			l-1.4-0.2c-0.1-0.3-0.1-0.7,0-1.2c0.1-0.6,0.3-1.1,0.7-1.3c0.4-0.3,1-0.4,1.8-0.3l2.4,0.3l0.1-0.8l1.3,0.2l-0.1,0.8l1.3,0.2
			L368.3,219.8z"/>
	</g>
	<g>
		<path fill="#FFFFFF" d="M362.8,231.7c-2.6-0.5-3.9-2.4-3.5-4.7c0.4-2.4,2.5-3.5,4.8-3c2.4,0.4,3.9,2.3,3.5,4.7
			C367.1,231.1,365.1,232.1,362.8,231.7z M363.8,225.9c-1.6-0.3-2.8,0.3-3,1.5c-0.2,1.2,0.8,2.1,2.4,2.4c1.4,0.3,2.8-0.2,3-1.5
			C366.4,227.1,365.3,226.1,363.8,225.9z"/>
	</g>
	<g>
		<path fill="#FFFFFF" d="M359.1,237.9c-0.8-0.2-1.4-0.3-1.9-0.4l0.4-1.6l0.8,0.1l0,0c-0.3-0.3-0.8-1-0.5-2c0.3-1.2,1.2-1.9,3-1.4
			l3.4,0.8l-0.4,1.8l-3.1-0.7c-0.8-0.2-1.4,0-1.6,0.6c-0.1,0.5,0.2,0.9,0.4,1c0.1,0.1,0.2,0.1,0.4,0.1l3.4,0.8l-0.4,1.8L359.1,237.9
			z"/>
	</g>
	<g>
		<path fill="#FFFFFF" d="M363.7,242.8l-1.6-0.4l-0.3,1.3l-1.3-0.4l0.3-1.3l-2.1-0.6c-0.7-0.2-1.1-0.1-1.2,0.4
			c-0.1,0.2-0.1,0.4-0.1,0.5l-1.3-0.3c0-0.3,0-0.7,0.2-1.2c0.2-0.6,0.5-1,0.8-1.2c0.4-0.2,1-0.3,1.8,0l2.3,0.6l0.2-0.8l1.3,0.4
			l-0.2,0.8l1.2,0.3L363.7,242.8z"/>
	</g>
	<g>
		<path fill="#FFFFFF" d="M354.6,247.3c0-0.4,0-1,0.2-1.7c0.5-1.8,2-2.7,3.8-2.1c1.7,0.5,2.7,2,2,4.2c-0.1,0.5-0.4,1-0.6,1.3
			l-1.2-0.7c0.2-0.2,0.3-0.5,0.5-0.9c0.3-0.9-0.2-1.7-1.1-2c-1-0.3-1.8,0.2-2.1,1.1c-0.1,0.4-0.2,0.8-0.1,1.1L354.6,247.3z"/>
	</g>
	<g>
		<path fill="#FFFFFF" d="M355.2,254.6c-2.1-0.7-2.5-2.5-2-4c0.6-1.6,2.1-2.5,3.9-1.9c1.8,0.6,2.6,2.2,2,4
			C358.5,254.4,356.9,255.1,355.2,254.6z M356.5,250.5c-1-0.3-1.8-0.2-2.1,0.6c-0.2,0.7,0.3,1.3,1.3,1.7c0.8,0.3,1.8,0.3,2.1-0.5
			C358.1,251.4,357.3,250.8,356.5,250.5z"/>
	</g>
	<g>
		<path fill="#FFFFFF" d="M355.7,256.1c0.7,0.3,1.3,0.5,1.8,0.7l-0.6,1.4l-0.8-0.2l0,0c0.3,0.4,0.6,1.1,0.2,2
			c-0.3,0.7-0.9,1.1-1.5,1.1l0,0c0.2,0.3,0.3,0.7,0.4,1c0.1,0.4,0,0.7-0.1,1.2c-0.4,1.1-1.5,1.6-3.1,0.9l-3.2-1.3l0.7-1.7l3,1.2
			c0.8,0.3,1.4,0.2,1.6-0.3c0.2-0.4,0-0.8-0.3-1c-0.1-0.1-0.3-0.2-0.4-0.2l-3.2-1.3l0.7-1.7l3.1,1.2c0.7,0.3,1.3,0.2,1.5-0.3
			c0.2-0.4-0.1-0.8-0.3-1c-0.1-0.1-0.3-0.2-0.4-0.2l-3.2-1.3l0.7-1.7L355.7,256.1z"/>
	</g>
	<g>
		<path fill="#FFFFFF" d="M349.7,266.4c-0.7-0.3-1.4,0.3-1.7,1.1c-0.3,0.6-0.4,1.1-0.5,1.6l-1.2-0.3c0-0.7,0.2-1.4,0.6-2.1
			c0.8-1.8,2.4-2.4,4.1-1.6c1.4,0.6,2.5,2.2,1.6,4c-0.8,1.7-2.5,1.8-3.8,1.2c-0.3-0.1-0.5-0.3-0.6-0.4L349.7,266.4z M349.9,268.9
			c0.4,0.2,1.2,0.3,1.5-0.4c0.3-0.7-0.2-1.3-0.6-1.5L349.9,268.9z"/>
	</g>
	<g>
		<path fill="#FFFFFF" d="M346.9,270.6c-0.3,0.2-0.9,0.7-1.1,1.2c-0.3,0.5-0.2,0.8,0.1,0.9c0.3,0.1,0.5,0,1-0.5
			c0.9-0.9,1.7-1,2.3-0.7c1,0.5,1.3,1.7,0.7,3c-0.3,0.6-0.7,1.1-1.1,1.3l-1-0.9c0.2-0.2,0.7-0.5,0.9-1c0.2-0.4,0.2-0.7-0.1-0.8
			c-0.2-0.1-0.5,0-1,0.6c-0.9,0.8-1.6,1-2.4,0.6c-1-0.5-1.3-1.6-0.6-3.2c0.3-0.7,0.8-1.2,1.2-1.5L346.9,270.6z"/>
	</g>
</g>
<g>
	<g>
		<path fill="#FFFFFF" d="M126.8,345l-4,7.1l-1.6-0.9l4-7.1L126.8,345z"/>
	</g>
	<g>
		<path fill="#FFFFFF" d="M126.2,349.4c0.3-0.7,0.6-1.2,0.8-1.7l1.4,0.7l-0.3,0.8l0,0c0.4-0.2,1.1-0.5,2,0c0.7,0.3,1,1,1,1.6l0,0
			c0.3-0.2,0.7-0.3,1-0.3c0.4,0,0.7,0.1,1.1,0.3c1,0.5,1.4,1.6,0.6,3.2l-1.6,3.1l-1.6-0.8l1.5-2.9c0.4-0.8,0.4-1.3-0.2-1.6
			c-0.4-0.2-0.8-0.1-1,0.2c-0.1,0.1-0.2,0.3-0.3,0.4l-1.6,3.1l-1.6-0.8l1.5-3c0.3-0.7,0.3-1.2-0.2-1.5c-0.4-0.2-0.8,0-1.1,0.2
			c-0.1,0.1-0.2,0.2-0.3,0.4l-1.6,3.1l-1.6-0.8L126.2,349.4z"/>
	</g>
	<g>
		<path fill="#FFFFFF" d="M135.5,354.2c0.3-0.7,0.6-1.3,0.8-1.8l1.5,0.6l-0.3,0.8l0,0c0.7-0.4,1.4-0.4,2.2-0.1c1.2,0.5,1.8,2,1,3.8
			c-0.9,2-2.5,2.3-3.7,1.8c-0.7-0.3-1-0.8-1.1-1.2l0,0l-1.2,2.7l-1.7-0.7L135.5,354.2z M136.6,356.2c-0.1,0.1-0.1,0.3-0.1,0.4
			c-0.1,0.5,0.1,1,0.6,1.2c0.7,0.3,1.4-0.1,1.8-1c0.4-0.9,0.3-1.7-0.5-2c-0.5-0.2-1.1,0-1.4,0.4c-0.1,0.1-0.1,0.2-0.2,0.3
			L136.6,356.2z"/>
	</g>
	<g>
		<path fill="#FFFFFF" d="M142.2,357.1c0.3-0.8,0.5-1.3,0.7-1.8l1.5,0.6l-0.3,1l0,0c0.6-0.7,1.4-0.8,1.9-0.5
			c0.2,0.1,0.2,0.1,0.4,0.2l-0.6,1.6c-0.1-0.1-0.3-0.2-0.4-0.2c-0.6-0.3-1.2-0.1-1.5,0.4c-0.1,0.1-0.1,0.2-0.2,0.4l-1.1,2.8
			l-1.7-0.7L142.2,357.1z"/>
	</g>
	<g>
		<path fill="#FFFFFF" d="M151.6,361.6c-0.7,2-2.5,2.5-4,1.9c-1.6-0.6-2.5-2.1-1.8-3.9c0.6-1.8,2.2-2.5,4-1.9
			C151.5,358.4,152.2,360,151.6,361.6z M147.5,360.2c-0.3,1-0.2,1.8,0.5,2.1c0.7,0.2,1.3-0.3,1.7-1.3c0.3-0.8,0.3-1.8-0.5-2.1
			C148.4,358.7,147.8,359.4,147.5,360.2z"/>
	</g>
	<g>
		<path fill="#FFFFFF" d="M154.8,359.6l-0.1,2.9c0,0.5,0,1-0.1,1.5l0,0c0.2-0.4,0.5-0.8,0.7-1.3l1.6-2.4l1.9,0.6l-3.9,5l-1.8-0.6
			l-0.3-6.3L154.8,359.6z"/>
	</g>
	<g>
		<path fill="#FFFFFF" d="M159.9,364.8c-0.1,0.8,0.5,1.3,1.3,1.5c0.6,0.2,1.1,0.2,1.6,0.2l-0.1,1.3c-0.6,0.1-1.4,0-2.2-0.2
			c-1.9-0.5-2.7-2-2.3-3.7c0.4-1.4,1.7-2.8,3.7-2.3c1.8,0.5,2.2,2.1,1.8,3.5c-0.1,0.3-0.2,0.6-0.2,0.7L159.9,364.8z M162.3,364.2
			c0.1-0.4,0.1-1.2-0.7-1.4c-0.7-0.2-1.2,0.4-1.4,0.9L162.3,364.2z"/>
	</g>
	<g>
		<path fill="#FFFFFF" d="M171.8,361.3l-1.5,6.7c-0.1,0.6-0.3,1.3-0.3,1.7l-1.6-0.4l0.1-0.9l0,0c-0.5,0.6-1.3,0.7-2,0.6
			c-1.4-0.3-2.2-1.7-1.8-3.5c0.4-2,1.9-2.8,3.3-2.5c0.7,0.2,1.2,0.5,1.4,1l0,0l0.7-3.1L171.8,361.3z M168.8,366c0-0.1,0-0.2,0-0.3
			c0-0.5-0.3-1-0.9-1.1c-0.8-0.2-1.4,0.5-1.6,1.4c-0.2,1,0.1,1.7,0.9,1.9c0.5,0.1,1-0.1,1.2-0.6c0.1-0.1,0.1-0.2,0.1-0.4L168.8,366z
			"/>
	</g>
	<g>
		<path fill="#FFFFFF" d="M180,371.3c-0.4,0.1-1.1,0.2-2.1,0c-2.8-0.5-3.9-2.4-3.6-4.7c0.4-2.8,2.7-4,5.1-3.6
			c0.9,0.2,1.6,0.5,1.9,0.7l-0.6,1.4c-0.3-0.2-0.8-0.4-1.5-0.5c-1.4-0.2-2.7,0.5-3,2.2c-0.3,1.6,0.5,2.8,2.2,3.1
			c0.6,0.1,1.2,0.1,1.6,0L180,371.3z"/>
	</g>
	<g>
		<path fill="#FFFFFF" d="M182.4,363.1l1.8,0.2l-1.1,8.5l-1.8-0.2L182.4,363.1z"/>
	</g>
	<g>
		<path fill="#FFFFFF" d="M184.7,372.1l0.6-5.9l1.8,0.2l-0.6,5.9L184.7,372.1z M187.4,364.8c-0.1,0.5-0.5,0.9-1.1,0.8
			c-0.6-0.1-0.9-0.5-0.9-1c0-0.5,0.5-0.9,1.1-0.8C187.1,363.8,187.5,364.3,187.4,364.8z"/>
	</g>
	<g>
		<path fill="#FFFFFF" d="M188.5,368.5c0.1-0.7,0.1-1.4,0.1-1.9l1.6,0.1l0,0.8l0,0c0.3-0.4,0.9-0.9,1.9-0.8c1.2,0.1,2.1,1,1.9,2.7
			l-0.3,3.5l-1.8-0.1l0.3-3.3c0.1-0.8-0.2-1.3-0.8-1.4c-0.5,0-0.8,0.3-1,0.6c-0.1,0.1-0.1,0.3-0.1,0.5l-0.3,3.4l-1.8-0.1
			L188.5,368.5z"/>
	</g>
	<g>
		<path fill="#FFFFFF" d="M195.4,373l0.3-5.9l1.8,0.1l-0.3,5.9L195.4,373z M197.6,365.5c0,0.5-0.4,0.9-1,0.9c-0.6,0-1-0.5-0.9-1
			c0-0.5,0.4-0.9,1-0.9C197.3,364.6,197.7,365,197.6,365.5z"/>
	</g>
	<g>
		<path fill="#FFFFFF" d="M203.3,373.1c-0.3,0.1-1,0.2-1.7,0.2c-1.9,0-3.1-1.2-3.1-3.1c0-1.7,1.2-3.1,3.4-3.1c0.5,0,1,0.1,1.4,0.3
			l-0.3,1.4c-0.2-0.1-0.5-0.2-1-0.2c-1,0-1.6,0.7-1.6,1.6c0,1.1,0.7,1.7,1.6,1.7c0.4,0,0.8-0.1,1.1-0.2L203.3,373.1z"/>
	</g>
	<g>
		<path fill="#FFFFFF" d="M206.3,365.6c0,0.5-0.4,0.9-1,0.9c-0.6,0-1-0.4-1-0.9c0-0.5,0.4-0.9,1-0.9
			C205.9,364.7,206.3,365.1,206.3,365.6z M204.5,373.2l-0.1-5.9l1.8,0l0.1,5.9L204.5,373.2z"/>
	</g>
	<g>
		<path fill="#FFFFFF" d="M211.3,373l-0.1-0.6l0,0c-0.4,0.5-1,0.8-1.7,0.8c-1.2,0-1.9-0.8-2-1.7c-0.1-1.5,1.3-2.3,3.4-2.4l0-0.1
			c0-0.3-0.2-0.8-1.1-0.7c-0.6,0-1.2,0.3-1.6,0.5l-0.4-1.2c0.4-0.2,1.2-0.6,2.3-0.6c2-0.1,2.6,1.1,2.7,2.5l0.1,2.1
			c0,0.6,0.1,1.1,0.1,1.4L211.3,373z M210.9,370.2c-1,0-1.7,0.3-1.7,1c0,0.5,0.3,0.7,0.8,0.7c0.5,0,0.8-0.3,0.9-0.7
			c0-0.1,0-0.2,0-0.3L210.9,370.2z"/>
	</g>
	<g>
		<path fill="#FFFFFF" d="M214.2,368.9c-0.1-0.7-0.1-1.4-0.2-1.9l1.6-0.1l0.1,0.8l0,0c0.2-0.4,0.8-1,1.7-1.1
			c1.2-0.1,2.2,0.6,2.3,2.4l0.3,3.5l-1.8,0.1l-0.3-3.3c-0.1-0.8-0.4-1.3-1-1.2c-0.5,0-0.8,0.4-0.9,0.8c0,0.1,0,0.3,0,0.5l0.3,3.4
			l-1.8,0.1L214.2,368.9z"/>
	</g>
	<g>
		<path fill="#FFFFFF" d="M228.7,367.9l-3,0.4l0.3,1.9l3.3-0.5l0.2,1.5l-5.2,0.7l-1.1-8.1l5-0.7l0.2,1.5l-3.2,0.4l0.2,1.7l3-0.4
			L228.7,367.9z"/>
	</g>
	<g>
		<path fill="#FFFFFF" d="M231.3,364.9l0.7,0.9c0.2,0.3,0.4,0.5,0.6,0.8l0,0c0.1-0.3,0.2-0.7,0.3-1l0.3-1l2-0.4l-1.4,3.1l2.5,2.7
			l-2.1,0.4l-0.8-0.9c-0.2-0.3-0.4-0.5-0.6-0.8l0,0c-0.1,0.3-0.2,0.6-0.3,1l-0.4,1.1l-2,0.4l1.4-3.3l-2.4-2.5L231.3,364.9z"/>
	</g>
	<g>
		<path fill="#FFFFFF" d="M236.5,366c-0.2-0.8-0.3-1.4-0.5-1.9l1.6-0.3l0.3,0.8l0,0c0.3-0.7,0.9-1.2,1.7-1.4
			c1.3-0.3,2.6,0.6,3.1,2.4c0.5,2.1-0.6,3.4-1.9,3.7c-0.7,0.2-1.3,0-1.7-0.3l0,0l0.6,2.9l-1.8,0.4L236.5,366z M238.6,367
			c0,0.1,0.1,0.3,0.1,0.4c0.2,0.5,0.7,0.7,1.2,0.6c0.8-0.2,1.1-0.9,0.9-1.9c-0.2-0.9-0.8-1.5-1.6-1.3c-0.5,0.1-0.9,0.6-0.9,1.2
			c0,0.1,0,0.2,0,0.3L238.6,367z"/>
	</g>
	<g>
		<path fill="#FFFFFF" d="M245.4,365.5c0.3,0.7,1.1,0.9,1.9,0.7c0.6-0.2,1.1-0.4,1.5-0.7l0.6,1.1c-0.5,0.4-1.2,0.7-2,0.9
			c-1.9,0.5-3.4-0.3-3.8-2.1c-0.4-1.5,0.1-3.3,2.1-3.8c1.8-0.5,2.9,0.8,3.3,2.2c0.1,0.3,0.1,0.6,0.1,0.7L245.4,365.5z M247.1,363.7
			c-0.1-0.4-0.5-1.1-1.3-0.9c-0.7,0.2-0.9,1-0.8,1.5L247.1,363.7z"/>
	</g>
	<g>
		<path fill="#FFFFFF" d="M249.8,362.6c-0.3-0.8-0.4-1.4-0.6-1.9l1.5-0.5l0.4,1l0,0c0-0.9,0.6-1.5,1.2-1.6c0.2-0.1,0.2-0.1,0.4-0.1
			l0.5,1.7c-0.1,0-0.3,0-0.5,0.1c-0.6,0.2-1,0.7-0.9,1.3c0,0.1,0,0.3,0.1,0.4l0.9,2.9l-1.8,0.5L249.8,362.6z"/>
	</g>
	<g>
		<path fill="#FFFFFF" d="M254.9,357.2c0.2,0.5-0.1,1-0.7,1.2c-0.6,0.2-1.1-0.1-1.2-0.6c-0.2-0.5,0.1-1,0.6-1.2
			C254.2,356.5,254.7,356.7,254.9,357.2z M255.5,365l-1.9-5.6l1.7-0.6l1.9,5.6L255.5,365z"/>
	</g>
	<g>
		<path fill="#FFFFFF" d="M259.3,361.2c0.3,0.7,1.2,0.8,2,0.5c0.6-0.2,1-0.5,1.5-0.8l0.7,1.1c-0.5,0.4-1.1,0.8-1.9,1.1
			c-1.9,0.7-3.4,0-4-1.7c-0.5-1.4-0.2-3.3,1.7-4c1.8-0.7,3,0.5,3.5,1.9c0.1,0.3,0.2,0.6,0.2,0.7L259.3,361.2z M260.9,359.2
			c-0.2-0.4-0.6-1.1-1.4-0.8c-0.7,0.3-0.8,1-0.7,1.5L260.9,359.2z"/>
	</g>
	<g>
		<path fill="#FFFFFF" d="M263.4,357.9c-0.3-0.7-0.5-1.3-0.8-1.7l1.5-0.6l0.4,0.7l0,0c0.1-0.4,0.4-1.2,1.3-1.6
			c1.1-0.5,2.3-0.1,2.9,1.5l1.4,3.2l-1.7,0.7l-1.3-3c-0.3-0.7-0.7-1.1-1.4-0.8c-0.5,0.2-0.6,0.6-0.6,1c0,0.1,0,0.3,0.1,0.5l1.3,3.2
			l-1.7,0.7L263.4,357.9z"/>
	</g>
	<g>
		<path fill="#FFFFFF" d="M275.7,356.7c-0.2,0.3-0.7,0.6-1.4,0.9c-1.7,0.8-3.3,0.3-4.1-1.4c-0.7-1.6-0.2-3.4,1.8-4.3
			c0.4-0.2,1-0.4,1.4-0.4l0.3,1.4c-0.2,0-0.6,0.1-1,0.3c-0.9,0.4-1.2,1.3-0.7,2.2c0.5,1,1.4,1.2,2.2,0.8c0.4-0.2,0.7-0.4,0.9-0.6
			L275.7,356.7z"/>
	</g>
	<g>
		<path fill="#FFFFFF" d="M276.9,353.6c0.4,0.7,1.2,0.6,2,0.2c0.6-0.3,1-0.6,1.3-1l0.8,1c-0.4,0.5-1,0.9-1.7,1.3
			c-1.8,0.9-3.3,0.4-4.2-1.3c-0.7-1.3-0.6-3.2,1.2-4.2c1.7-0.9,3,0.1,3.7,1.4c0.1,0.3,0.2,0.5,0.3,0.7L276.9,353.6z M278.2,351.5
			c-0.2-0.4-0.7-1-1.5-0.6c-0.7,0.4-0.7,1.1-0.5,1.6L278.2,351.5z"/>
	</g>
</g>
<g>
	<g>
		<path fill="#FFFFFF" d="M49.2,285.6l7.1-4.1l0.9,1.6l-7.1,4.1L49.2,285.6z"/>
	</g>
	<g>
		<path fill="#FFFFFF" d="M51.9,282.1c-0.7,0.3-1.2,0.7-1.7,0.9l-0.7-1.4l0.7-0.4l0,0c-0.5-0.1-1.2-0.3-1.7-1.2
			c-0.4-0.7-0.3-1.4,0.1-1.9l0,0c-0.4-0.1-0.7-0.2-1-0.3c-0.3-0.2-0.6-0.5-0.8-0.9c-0.5-1-0.2-2.1,1.3-3l3.1-1.6l0.8,1.6l-2.9,1.5
			c-0.8,0.4-1.1,0.9-0.8,1.4c0.2,0.4,0.6,0.5,1,0.5c0.1,0,0.3-0.1,0.5-0.2l3.1-1.6l0.8,1.6l-2.9,1.5c-0.7,0.3-1,0.8-0.7,1.3
			c0.2,0.4,0.7,0.5,1,0.5c0.2,0,0.3-0.1,0.4-0.1l3.1-1.6l0.8,1.6L51.9,282.1z"/>
	</g>
	<g>
		<path fill="#FFFFFF" d="M47.1,272.7c-0.7,0.3-1.3,0.6-1.8,0.9l-0.7-1.5l0.7-0.4l0,0c-0.8-0.1-1.3-0.6-1.7-1.4
			c-0.5-1.2,0-2.7,1.7-3.5c2-0.9,3.5-0.1,4,1.1c0.3,0.6,0.3,1.3,0,1.7l0,0l2.7-1.2l0.8,1.7L47.1,272.7z M47.6,270.4
			c0.1-0.1,0.2-0.1,0.3-0.2c0.4-0.3,0.6-0.9,0.3-1.3c-0.3-0.7-1.1-0.9-2.1-0.5c-0.9,0.4-1.3,1.1-1,1.8c0.2,0.5,0.8,0.7,1.3,0.6
			c0.1,0,0.2-0.1,0.3-0.1L47.6,270.4z"/>
	</g>
	<g>
		<path fill="#FFFFFF" d="M44.1,266c-0.8,0.3-1.3,0.6-1.8,0.8l-0.6-1.5l1-0.5l0,0c-0.9,0.1-1.5-0.5-1.7-1c-0.1-0.2-0.1-0.2-0.1-0.4
			l1.6-0.7c0,0.1,0.1,0.3,0.1,0.5c0.3,0.6,0.8,0.9,1.3,0.8c0.1,0,0.3-0.1,0.4-0.1l2.8-1.2l0.7,1.7L44.1,266z"/>
	</g>
	<g>
		<path fill="#FFFFFF" d="M41.2,256c2-0.8,3.5,0.3,4.1,1.8c0.6,1.6,0,3.3-1.8,3.9c-1.8,0.7-3.4-0.1-4.1-1.8
			C38.8,258.2,39.5,256.6,41.2,256z M42.7,260c1-0.4,1.5-1,1.2-1.8c-0.3-0.7-1.1-0.8-2.1-0.5c-0.8,0.3-1.5,0.9-1.3,1.7
			C41,260.3,41.9,260.3,42.7,260z"/>
	</g>
	<g>
		<path fill="#FFFFFF" d="M37.6,254.6L40,253c0.4-0.3,0.8-0.5,1.3-0.8l0,0c-0.5,0.1-0.9,0.1-1.5,0.1l-2.9,0.1l-0.6-1.8l6.3,0.2
			l0.6,1.7l-4.9,3.9L37.6,254.6z"/>
	</g>
	<g>
		<path fill="#FFFFFF" d="M39.1,247.5c0.7-0.3,0.9-1.1,0.6-1.9c-0.2-0.6-0.4-1.1-0.7-1.5l1.1-0.6c0.4,0.5,0.7,1.2,0.9,2
			c0.6,1.9-0.2,3.4-2,3.9c-1.4,0.4-3.3,0-3.9-2c-0.5-1.8,0.7-3,2.1-3.4c0.3-0.1,0.6-0.1,0.7-0.1L39.1,247.5z M37.3,245.8
			c-0.4,0.1-1.1,0.5-0.9,1.3c0.2,0.7,1,0.8,1.5,0.8L37.3,245.8z"/>
	</g>
	<g>
		<path fill="#FFFFFF" d="M30.3,238.6l6.6-1.6c0.6-0.2,1.3-0.4,1.7-0.5l0.4,1.6l-0.8,0.3l0,0c0.7,0.2,1.2,0.8,1.4,1.6
			c0.3,1.4-0.6,2.7-2.3,3.2c-1.9,0.5-3.4-0.4-3.7-1.8c-0.2-0.7-0.1-1.3,0.3-1.7l0,0l-3.1,0.8L30.3,238.6z M35.8,239.1
			c-0.1,0-0.2,0.1-0.3,0.1c-0.5,0.2-0.8,0.7-0.6,1.3c0.2,0.8,1,1.1,1.9,0.8c1-0.2,1.5-0.9,1.3-1.6c-0.1-0.5-0.6-0.8-1.1-0.8
			c-0.1,0-0.3,0-0.4,0.1L35.8,239.1z"/>
	</g>
	<g>
		<path fill="#FFFFFF" d="M29.8,234.3l-0.9-4.9l1.5-0.3l0.6,3.1l1.8-0.3l-0.5-2.9l1.5-0.3l0.5,2.9l3.2-0.6l0.3,1.8L29.8,234.3z"/>
	</g>
	<g>
		<path fill="#FFFFFF" d="M29,226.2c0.5-0.1,1,0.2,1.1,0.8c0.1,0.6-0.3,1-0.8,1.1c-0.5,0.1-1-0.2-1.1-0.8
			C28.1,226.7,28.4,226.3,29,226.2z M36.7,226.8l-5.9,0.9l-0.3-1.8l5.9-0.9L36.7,226.8z"/>
	</g>
	<g>
		<path fill="#FFFFFF" d="M32.2,224.1c-0.7,0.1-1.4,0.2-1.9,0.3l-0.2-1.6l0.8-0.2l0,0c-0.4-0.2-1-0.7-1.2-1.7
			c-0.2-1.2,0.5-2.2,2.3-2.4l3.5-0.5l0.2,1.8l-3.3,0.4c-0.8,0.1-1.2,0.4-1.2,1.1c0.1,0.5,0.5,0.8,0.8,0.8c0.1,0,0.3,0,0.5,0l3.4-0.4
			l0.2,1.8L32.2,224.1z"/>
	</g>
	<g>
		<path fill="#FFFFFF" d="M35,213.3l-0.6,0.2l0,0c0.5,0.3,0.8,0.9,0.9,1.6c0.1,1.2-0.7,2-1.6,2.1c-1.5,0.1-2.4-1.2-2.6-3.3l-0.1,0
			c-0.3,0-0.7,0.2-0.7,1.1c0.1,0.6,0.3,1.2,0.6,1.6l-1.2,0.4c-0.3-0.4-0.6-1.2-0.7-2.2c-0.2-2,0.9-2.7,2.3-2.8l2.1-0.2
			c0.6-0.1,1.1-0.1,1.4-0.2L35,213.3z M32.3,213.8c0.1,1,0.4,1.7,1.1,1.6c0.5,0,0.7-0.4,0.6-0.8c0-0.5-0.4-0.8-0.8-0.9
			c-0.1,0-0.2,0-0.3,0L32.3,213.8z"/>
	</g>
	<g>
		<path fill="#FFFFFF" d="M30.8,210.6c-0.7,0-1.4,0.1-1.9,0.1l-0.1-1.6l0.8-0.1l0,0c-0.4-0.2-1-0.8-1-1.8c-0.1-1.2,0.7-2.2,2.4-2.2
			l3.5-0.2l0.1,1.8l-3.3,0.2c-0.8,0-1.3,0.3-1.2,1c0,0.5,0.4,0.8,0.7,0.9c0.1,0,0.3,0.1,0.5,0l3.4-0.2l0.1,1.8L30.8,210.6z"/>
	</g>
	<g>
		<path fill="#FFFFFF" d="M34.3,198.9c0.2,0.3,0.3,0.9,0.3,1.6c0,1.9-1.1,3.2-3,3.2c-1.7,0-3.2-1.1-3.2-3.3c0-0.5,0.1-1,0.2-1.4
			l1.4,0.3c-0.1,0.2-0.2,0.5-0.2,1c0,1,0.7,1.6,1.7,1.6c1.1,0,1.6-0.8,1.6-1.6c0-0.4-0.1-0.8-0.2-1.1L34.3,198.9z"/>
	</g>
	<g>
		<path fill="#FFFFFF" d="M26.9,195.9c0.5,0,0.9,0.4,0.9,1c0,0.6-0.4,1-0.9,0.9c-0.5,0-0.9-0.4-0.9-1
			C26,196.3,26.4,195.9,26.9,195.9z M34.5,197.9l-5.9-0.1l0-1.8l5.9,0.1L34.5,197.9z"/>
	</g>
	<g>
		<path fill="#FFFFFF" d="M34.6,191.3l-0.6,0.1l0,0c0.5,0.4,0.7,1,0.7,1.7c0,1.2-1,1.9-1.9,1.8c-1.5-0.1-2.2-1.5-2.1-3.6l-0.1,0
			c-0.3,0-0.8,0.1-0.8,1c0,0.6,0.2,1.3,0.4,1.7l-1.2,0.3c-0.2-0.4-0.5-1.2-0.4-2.3c0.1-2,1.3-2.6,2.7-2.5l2.1,0.1c0.6,0,1.1,0,1.4,0
			L34.6,191.3z M31.8,191.4c-0.1,1,0.1,1.7,0.9,1.8c0.5,0,0.7-0.3,0.7-0.7c0-0.5-0.3-0.8-0.6-1c-0.1,0-0.2,0-0.3,0L31.8,191.4z"/>
	</g>
	<g>
		<path fill="#FFFFFF" d="M26.2,187.7l0.1-1.8l8.6,0.6l-0.1,1.8L26.2,187.7z"/>
	</g>
	<g>
		<path fill="#FFFFFF" d="M32,174.7c2.7,0.3,4.1,2.1,3.8,4.5c-0.3,2.4-2.3,3.6-4.6,3.3c-2.4-0.3-4.1-2.1-3.8-4.5
			C27.7,175.5,29.8,174.4,32,174.7z M31.4,180.5c1.6,0.2,2.8-0.4,2.9-1.6c0.2-1.2-0.9-2.1-2.5-2.3c-1.5-0.2-2.8,0.4-2.9,1.6
			C28.7,179.5,29.8,180.4,31.4,180.5z"/>
	</g>
	<g>
		<path fill="#FFFFFF" d="M35.4,168.3c0.8,0.1,1.4,0.2,1.9,0.3l-0.3,1.6l-0.8-0.1l0,0c0.3,0.3,0.8,0.9,0.6,2
			c-0.2,1.2-1.1,1.9-2.9,1.6l-3.4-0.6l0.3-1.8l3.1,0.5c0.8,0.1,1.4,0,1.5-0.7c0.1-0.5-0.2-0.8-0.5-1c-0.1-0.1-0.2-0.1-0.4-0.1
			l-3.5-0.6l0.3-1.8L35.4,168.3z"/>
	</g>
	<g>
		<path fill="#FFFFFF" d="M30.5,163.6l1.7,0.3l0.3-1.3l1.3,0.3l-0.3,1.3l2.1,0.4c0.7,0.1,1.1,0,1.2-0.5c0-0.2,0.1-0.4,0.1-0.5
			l1.4,0.3c0,0.3,0,0.7-0.1,1.2c-0.1,0.6-0.4,1-0.8,1.3c-0.4,0.3-1,0.3-1.8,0.1l-2.4-0.5l-0.2,0.8l-1.3-0.3l0.2-0.8l-1.3-0.3
			L30.5,163.6z"/>
	</g>
	<g>
		<path fill="#FFFFFF" d="M39.3,158.6c0.1,0.4,0,1-0.1,1.7c-0.4,1.9-1.9,2.8-3.7,2.4c-1.7-0.4-2.8-1.9-2.3-4c0.1-0.5,0.3-1,0.5-1.3
			l1.3,0.6c-0.1,0.2-0.3,0.5-0.4,1c-0.2,0.9,0.3,1.7,1.3,1.9c1.1,0.3,1.8-0.3,2-1.2c0.1-0.4,0.1-0.8,0.1-1.1L39.3,158.6z"/>
	</g>
	<g>
		<path fill="#FFFFFF" d="M38.3,151.4c2.1,0.6,2.6,2.3,2.2,3.9c-0.5,1.7-1.9,2.7-3.8,2.1c-1.8-0.5-2.7-2-2.2-3.9
			C35,151.8,36.6,150.9,38.3,151.4z M37.2,155.5c1,0.3,1.8,0.1,2-0.7c0.2-0.7-0.4-1.3-1.4-1.6c-0.9-0.2-1.8-0.1-2,0.7
			C35.6,154.8,36.4,155.3,37.2,155.5z"/>
	</g>
	<g>
		<path fill="#FFFFFF" d="M37.6,149.9c-0.7-0.2-1.3-0.4-1.8-0.5l0.5-1.5l0.8,0.2l0,0c-0.3-0.4-0.6-1-0.3-2c0.2-0.7,0.8-1.2,1.5-1.2
			l0,0c-0.2-0.3-0.4-0.6-0.4-0.9c-0.1-0.4-0.1-0.7,0.1-1.2c0.4-1.1,1.4-1.6,3.1-1.1l3.3,1.1l-0.6,1.7l-3.1-1
			c-0.8-0.3-1.4-0.2-1.6,0.4c-0.1,0.4,0,0.8,0.3,1c0.1,0.1,0.3,0.2,0.4,0.2l3.3,1.1l-0.6,1.7l-3.2-1c-0.7-0.2-1.3-0.1-1.5,0.4
			c-0.1,0.4,0.1,0.8,0.4,1c0.1,0.1,0.3,0.2,0.4,0.2l3.3,1.1l-0.6,1.7L37.6,149.9z"/>
	</g>
	<g>
		<path fill="#FFFFFF" d="M43.1,139.3c0.7,0.2,1.3-0.3,1.7-1.1c0.2-0.6,0.3-1.1,0.4-1.6l1.3,0.2c0,0.7-0.1,1.4-0.4,2.1
			c-0.7,1.9-2.2,2.5-4,1.9c-1.4-0.5-2.6-2-1.9-3.9c0.7-1.8,2.3-1.9,3.7-1.4c0.3,0.1,0.5,0.2,0.7,0.3L43.1,139.3z M42.7,136.8
			c-0.4-0.2-1.2-0.3-1.5,0.5c-0.3,0.7,0.3,1.3,0.7,1.5L42.7,136.8z"/>
	</g>
	<g>
		<path fill="#FFFFFF" d="M45.6,134.9c0.3-0.2,0.8-0.8,1-1.3c0.2-0.5,0.1-0.8-0.1-0.9c-0.3-0.1-0.5,0-1,0.5c-0.9,1-1.7,1.1-2.3,0.8
			c-1-0.4-1.4-1.6-0.8-3c0.3-0.6,0.7-1.1,1-1.4l1,0.8c-0.2,0.2-0.6,0.6-0.8,1c-0.2,0.4-0.1,0.7,0.2,0.8c0.3,0.1,0.5,0,1-0.6
			c0.8-0.9,1.5-1.1,2.3-0.8c1,0.4,1.4,1.6,0.7,3.1c-0.3,0.7-0.7,1.3-1.1,1.6L45.6,134.9z"/>
	</g>
</g>
<g>
	<g>
		<path fill="#FFFFFF" d="M182.3,99.5v3.1h3v-3.1h1.8v8.2h-1.8v-3.4h-3v3.4h-1.9v-8.2H182.3z"/>
	</g>
	<g>
		<path fill="#FFFFFF" d="M194.6,104.6c0,2.2-1.5,3.2-3.1,3.2c-1.7,0-3.1-1.1-3.1-3.1c0-1.9,1.3-3.1,3.2-3.1
			C193.4,101.6,194.6,102.9,194.6,104.6z M190.3,104.7c0,1,0.4,1.8,1.2,1.8c0.7,0,1.2-0.7,1.2-1.8c0-0.9-0.3-1.8-1.2-1.8
			C190.6,102.9,190.3,103.8,190.3,104.7z"/>
	</g>
	<g>
		<path fill="#FFFFFF" d="M195.7,106.1c0.3,0.2,1,0.4,1.6,0.4c0.6,0,0.8-0.2,0.8-0.5c0-0.3-0.2-0.4-0.9-0.7
			c-1.2-0.4-1.7-1.1-1.7-1.8c0-1.1,0.9-1.9,2.4-1.9c0.7,0,1.3,0.2,1.7,0.3l-0.3,1.3c-0.3-0.1-0.8-0.3-1.3-0.3
			c-0.4,0-0.7,0.2-0.7,0.5c0,0.3,0.2,0.4,1,0.7c1.1,0.4,1.6,1,1.6,1.8c0,1.1-0.9,1.9-2.6,1.9c-0.8,0-1.5-0.2-1.9-0.4L195.7,106.1z"
			/>
	</g>
	<g>
		<path fill="#FFFFFF" d="M201,103.7c0-0.8,0-1.4,0-2h1.6l0.1,0.8h0c0.4-0.6,1.1-1,2-1c1.3,0,2.5,1.1,2.5,3c0,2.2-1.4,3.2-2.7,3.2
			c-0.7,0-1.3-0.3-1.5-0.7h0v2.9H201V103.7z M202.8,105.1c0,0.1,0,0.3,0,0.4c0.1,0.5,0.5,0.9,1.1,0.9c0.8,0,1.3-0.7,1.3-1.7
			c0-0.9-0.4-1.7-1.2-1.7c-0.5,0-1,0.4-1.1,0.9c0,0.1,0,0.2,0,0.3V105.1z"/>
	</g>
	<g>
		<path fill="#FFFFFF" d="M210.1,100.1c0,0.5-0.4,0.9-1,0.9c-0.6,0-1-0.4-1-0.9c0-0.5,0.4-0.9,1-0.9
			C209.7,99.2,210.1,99.6,210.1,100.1z M208.2,107.7v-5.9h1.8v5.9H208.2z"/>
	</g>
	<g>
		<path fill="#FFFFFF" d="M213.6,100v1.7h1.3v1.4h-1.3v2.1c0,0.7,0.2,1,0.7,1c0.2,0,0.4,0,0.5,0l0,1.4c-0.2,0.1-0.7,0.2-1.2,0.2
			c-0.6,0-1.1-0.2-1.4-0.5c-0.3-0.4-0.5-0.9-0.5-1.8v-2.4H211v-1.4h0.8v-1.3L213.6,100z"/>
	</g>
	<g>
		<path fill="#FFFFFF" d="M219.4,107.7l-0.1-0.6h0c-0.4,0.5-1,0.7-1.7,0.7c-1.2,0-1.9-0.9-1.9-1.8c0-1.5,1.4-2.3,3.5-2.3v-0.1
			c0-0.3-0.2-0.8-1.1-0.8c-0.6,0-1.2,0.2-1.6,0.4l-0.3-1.2c0.4-0.2,1.2-0.5,2.3-0.5c2,0,2.6,1.2,2.6,2.6v2.1c0,0.6,0,1.1,0.1,1.4
			H219.4z M219.1,104.9c-1,0-1.7,0.2-1.7,0.9c0,0.5,0.3,0.7,0.7,0.7c0.5,0,0.8-0.3,1-0.7c0-0.1,0-0.2,0-0.3V104.9z"/>
	</g>
	<g>
		<path fill="#FFFFFF" d="M222.4,99.1h1.8v8.6h-1.8V99.1z"/>
	</g>
</g>
<g>
	<g>
		<path fill="#FFFFFF" d="M275.1,148.1c0.6-0.1,1.4-0.2,2.5-0.2c1.1,0,2,0.2,2.5,0.7c0.5,0.4,0.9,1.1,0.9,1.9c0,0.8-0.3,1.5-0.8,1.9
			c-0.6,0.6-1.6,0.9-2.7,0.9c-0.2,0-0.5,0-0.6,0v2.9h-1.8V148.1z M276.9,151.8c0.2,0,0.4,0,0.6,0c1,0,1.6-0.5,1.6-1.3
			c0-0.8-0.5-1.2-1.4-1.2c-0.4,0-0.6,0-0.8,0.1V151.8z"/>
	</g>
	<g>
		<path fill="#FFFFFF" d="M282.1,147.5h1.8v3.4h0c0.2-0.3,0.4-0.4,0.7-0.6c0.3-0.1,0.6-0.2,1-0.2c1.2,0,2.1,0.8,2.1,2.6v3.5h-1.8
			v-3.3c0-0.8-0.3-1.3-1-1.3c-0.5,0-0.8,0.3-0.9,0.6c0,0.1-0.1,0.3-0.1,0.4v3.5h-1.8V147.5z"/>
	</g>
	<g>
		<path fill="#FFFFFF" d="M290.3,150.2l0.9,2.9c0.1,0.4,0.2,0.8,0.3,1.1h0c0.1-0.3,0.2-0.8,0.3-1.1l0.7-2.9h2l-1.4,3.9
			c-0.8,2.4-1.4,3.3-2.1,3.9c-0.6,0.6-1.3,0.8-1.8,0.8l-0.4-1.6c0.2,0,0.5-0.1,0.8-0.3c0.3-0.1,0.6-0.4,0.8-0.7
			c0.1-0.1,0.1-0.2,0.1-0.3c0-0.1,0-0.2-0.1-0.3l-2.2-5.4H290.3z"/>
	</g>
	<g>
		<path fill="#FFFFFF" d="M295.1,154.5c0.3,0.2,1,0.4,1.6,0.4c0.6,0,0.8-0.2,0.8-0.5c0-0.3-0.2-0.4-0.9-0.7
			c-1.2-0.4-1.7-1.1-1.7-1.8c0-1.1,0.9-1.9,2.4-1.9c0.7,0,1.3,0.2,1.7,0.3l-0.3,1.3c-0.3-0.1-0.8-0.3-1.3-0.3
			c-0.4,0-0.7,0.2-0.7,0.5c0,0.3,0.2,0.4,1,0.7c1.1,0.4,1.6,1,1.6,1.8c0,1.1-0.9,1.9-2.6,1.9c-0.8,0-1.5-0.2-1.9-0.4L295.1,154.5z"
			/>
	</g>
	<g>
		<path fill="#FFFFFF" d="M302.3,148.6c0,0.5-0.4,0.9-1,0.9c-0.6,0-1-0.4-1-0.9c0-0.5,0.4-0.9,1-0.9
			C301.9,147.6,302.2,148,302.3,148.6z M300.4,156.1v-5.9h1.8v5.9H300.4z"/>
	</g>
	<g>
		<path fill="#FFFFFF" d="M308.1,156c-0.3,0.1-0.9,0.3-1.6,0.3c-1.9,0-3.1-1.2-3.1-3c0-1.7,1.2-3.2,3.4-3.2c0.5,0,1,0.1,1.4,0.2
			l-0.3,1.4c-0.2-0.1-0.5-0.2-1-0.2c-1,0-1.6,0.7-1.6,1.7c0,1.1,0.7,1.7,1.6,1.7c0.4,0,0.8-0.1,1.1-0.2L308.1,156z"/>
	</g>
	<g>
		<path fill="#FFFFFF" d="M311,148.6c0,0.5-0.4,0.9-1,0.9c-0.6,0-1-0.4-1-0.9c0-0.5,0.4-0.9,1-0.9C310.7,147.6,311,148,311,148.6z
			 M309.1,156.1v-5.9h1.8v5.9H309.1z"/>
	</g>
	<g>
		<path fill="#FFFFFF" d="M315.8,156.1l-0.1-0.6h0c-0.4,0.5-1,0.7-1.7,0.7c-1.2,0-1.9-0.9-1.9-1.8c0-1.5,1.4-2.3,3.5-2.3v-0.1
			c0-0.3-0.2-0.8-1.1-0.8c-0.6,0-1.2,0.2-1.6,0.4l-0.3-1.2c0.4-0.2,1.2-0.5,2.3-0.5c2,0,2.6,1.2,2.6,2.6v2.1c0,0.6,0,1.1,0.1,1.4
			H315.8z M315.6,153.3c-1,0-1.7,0.2-1.7,0.9c0,0.5,0.3,0.7,0.7,0.7c0.5,0,0.8-0.3,1-0.7c0-0.1,0-0.2,0-0.3V153.3z"/>
	</g>
	<g>
		<path fill="#FFFFFF" d="M318.9,152.1c0-0.7,0-1.4,0-1.9h1.6l0.1,0.8h0c0.2-0.4,0.8-0.9,1.8-0.9c1.2,0,2.1,0.8,2.1,2.5v3.5h-1.8
			v-3.3c0-0.8-0.3-1.3-0.9-1.3c-0.5,0-0.8,0.4-0.9,0.7c0,0.1-0.1,0.3-0.1,0.5v3.4h-1.8V152.1z"/>
	</g>
	<g>
		<path fill="#FFFFFF" d="M279.1,162.6c0.6-0.1,1.4-0.2,2.5-0.2c1.1,0,2,0.2,2.5,0.7c0.5,0.4,0.9,1.1,0.9,1.9c0,0.8-0.3,1.5-0.8,1.9
			c-0.6,0.6-1.6,0.9-2.7,0.9c-0.2,0-0.5,0-0.6,0v2.9h-1.8V162.6z M280.9,166.3c0.2,0,0.4,0,0.6,0c1,0,1.6-0.5,1.6-1.3
			c0-0.8-0.5-1.2-1.4-1.2c-0.4,0-0.6,0-0.8,0.1V166.3z"/>
	</g>
	<g>
		<path fill="#FFFFFF" d="M286,166.7c0-0.9,0-1.4,0-2h1.6l0.1,1.1h0c0.3-0.9,1-1.2,1.6-1.2c0.2,0,0.3,0,0.4,0v1.7
			c-0.1,0-0.3,0-0.5,0c-0.7,0-1.1,0.4-1.3,0.9c0,0.1,0,0.3,0,0.4v3H286V166.7z"/>
	</g>
	<g>
		<path fill="#FFFFFF" d="M293.8,170.7l-0.1-0.6h0c-0.4,0.5-1,0.7-1.7,0.7c-1.2,0-1.9-0.9-1.9-1.8c0-1.5,1.4-2.3,3.5-2.3v-0.1
			c0-0.3-0.2-0.8-1.1-0.8c-0.6,0-1.2,0.2-1.6,0.4l-0.3-1.2c0.4-0.2,1.2-0.5,2.3-0.5c2,0,2.6,1.2,2.6,2.6v2.1c0,0.6,0,1.1,0.1,1.4
			H293.8z M293.6,167.9c-1,0-1.7,0.2-1.7,0.9c0,0.5,0.3,0.7,0.7,0.7c0.5,0,0.8-0.3,1-0.7c0-0.1,0-0.2,0-0.3V167.9z"/>
	</g>
	<g>
		<path fill="#FFFFFF" d="M301.3,170.5c-0.3,0.1-0.9,0.3-1.6,0.3c-1.9,0-3.1-1.2-3.1-3c0-1.7,1.2-3.2,3.4-3.2c0.5,0,1,0.1,1.4,0.2
			l-0.3,1.4c-0.2-0.1-0.5-0.2-1-0.2c-1,0-1.6,0.7-1.6,1.7c0,1.1,0.7,1.7,1.6,1.7c0.4,0,0.8-0.1,1.1-0.2L301.3,170.5z"/>
	</g>
	<g>
		<path fill="#FFFFFF" d="M304.5,163v1.7h1.3v1.4h-1.3v2.1c0,0.7,0.2,1,0.7,1c0.2,0,0.4,0,0.5,0l0,1.4c-0.2,0.1-0.7,0.2-1.2,0.2
			c-0.6,0-1.1-0.2-1.4-0.5c-0.3-0.4-0.5-0.9-0.5-1.8v-2.4h-0.8v-1.4h0.8v-1.3L304.5,163z"/>
	</g>
	<g>
		<path fill="#FFFFFF" d="M308.8,163.1c0,0.5-0.4,0.9-1,0.9c-0.6,0-1-0.4-1-0.9c0-0.5,0.4-0.9,1-0.9
			C308.4,162.2,308.8,162.6,308.8,163.1z M306.9,170.7v-5.9h1.8v5.9H306.9z"/>
	</g>
	<g>
		<path fill="#FFFFFF" d="M314.7,170.5c-0.3,0.1-0.9,0.3-1.6,0.3c-1.9,0-3.1-1.2-3.1-3c0-1.7,1.2-3.2,3.4-3.2c0.5,0,1,0.1,1.4,0.2
			l-0.3,1.4c-0.2-0.1-0.5-0.2-1-0.2c-1,0-1.6,0.7-1.6,1.7c0,1.1,0.7,1.7,1.6,1.7c0.4,0,0.8-0.1,1.1-0.2L314.7,170.5z"/>
	</g>
	<g>
		<path fill="#FFFFFF" d="M317,168.3c0.1,0.8,0.8,1.1,1.7,1.1c0.6,0,1.1-0.1,1.6-0.2l0.2,1.2c-0.6,0.2-1.3,0.4-2.1,0.4
			c-2,0-3.2-1.2-3.2-3c0-1.5,0.9-3.2,3-3.2c1.9,0,2.6,1.5,2.6,3c0,0.3,0,0.6-0.1,0.7H317z M319.2,167c0-0.4-0.2-1.2-1-1.2
			c-0.8,0-1.1,0.7-1.1,1.2H319.2z"/>
	</g>
</g>
<g>
	<g>
		<path fill="#FFFFFF" d="M242.4,283.3v3.1h3v-3.1h1.8v8.2h-1.8V288h-3v3.4h-1.9v-8.2H242.4z"/>
	</g>
	<g>
		<path fill="#FFFFFF" d="M254.7,288.4c0,2.2-1.5,3.2-3.1,3.2c-1.7,0-3.1-1.1-3.1-3.1c0-1.9,1.3-3.1,3.2-3.1
			C253.5,285.4,254.7,286.6,254.7,288.4z M250.4,288.5c0,1,0.4,1.8,1.2,1.8c0.7,0,1.2-0.7,1.2-1.8c0-0.9-0.3-1.8-1.2-1.8
			C250.7,286.7,250.4,287.6,250.4,288.5z"/>
	</g>
	<g>
		<path fill="#FFFFFF" d="M255.8,287.4c0-0.7,0-1.4,0-1.9h1.6l0.1,0.8h0c0.3-0.4,0.8-0.9,1.8-0.9c0.8,0,1.4,0.4,1.6,1h0
			c0.2-0.3,0.5-0.5,0.8-0.7c0.3-0.2,0.7-0.3,1.1-0.3c1.1,0,2,0.8,2,2.6v3.5H263v-3.2c0-0.9-0.3-1.4-0.9-1.4c-0.4,0-0.7,0.3-0.8,0.6
			c0,0.1-0.1,0.3-0.1,0.5v3.5h-1.8v-3.3c0-0.8-0.3-1.3-0.8-1.3c-0.5,0-0.8,0.4-0.9,0.7c-0.1,0.1-0.1,0.3-0.1,0.5v3.5h-1.8V287.4z"/>
	</g>
	<g>
		<path fill="#FFFFFF" d="M267.7,289.1c0.1,0.8,0.8,1.1,1.7,1.1c0.6,0,1.1-0.1,1.6-0.2l0.2,1.2c-0.6,0.2-1.3,0.4-2.1,0.4
			c-2,0-3.2-1.2-3.2-3c0-1.5,0.9-3.2,3-3.2c1.9,0,2.6,1.5,2.6,3c0,0.3,0,0.6-0.1,0.7H267.7z M269.8,287.8c0-0.4-0.2-1.2-1-1.2
			c-0.8,0-1.1,0.7-1.1,1.2H269.8z"/>
	</g>
	<g>
		<path fill="#FFFFFF" d="M240.5,297.8v3.1h3v-3.1h1.8v8.2h-1.8v-3.4h-3v3.4h-1.9v-8.2H240.5z"/>
	</g>
	<g>
		<path fill="#FFFFFF" d="M248.3,303.6c0.1,0.8,0.8,1.1,1.7,1.1c0.6,0,1.1-0.1,1.6-0.2l0.2,1.2c-0.6,0.2-1.3,0.4-2.1,0.4
			c-2,0-3.2-1.2-3.2-3c0-1.5,0.9-3.2,3-3.2c1.9,0,2.6,1.5,2.6,3c0,0.3,0,0.6-0.1,0.7H248.3z M250.5,302.3c0-0.4-0.2-1.2-1-1.2
			c-0.8,0-1.1,0.7-1.1,1.2H250.5z"/>
	</g>
	<g>
		<path fill="#FFFFFF" d="M256.7,306l-0.1-0.6h0c-0.4,0.5-1,0.7-1.7,0.7c-1.2,0-1.9-0.9-1.9-1.8c0-1.5,1.4-2.3,3.5-2.3v-0.1
			c0-0.3-0.2-0.8-1.1-0.8c-0.6,0-1.2,0.2-1.6,0.4l-0.3-1.2c0.4-0.2,1.2-0.5,2.3-0.5c2,0,2.6,1.2,2.6,2.6v2.1c0,0.6,0,1.1,0.1,1.4
			H256.7z M256.4,303.2c-1,0-1.7,0.2-1.7,0.9c0,0.5,0.3,0.7,0.7,0.7c0.5,0,0.8-0.3,1-0.7c0-0.1,0-0.2,0-0.3V303.2z"/>
	</g>
	<g>
		<path fill="#FFFFFF" d="M259.7,297.4h1.8v8.6h-1.8V297.4z"/>
	</g>
	<g>
		<path fill="#FFFFFF" d="M265.1,298.3v1.7h1.3v1.4h-1.3v2.1c0,0.7,0.2,1,0.7,1c0.2,0,0.4,0,0.5,0l0,1.4c-0.2,0.1-0.7,0.2-1.2,0.2
			c-0.6,0-1.1-0.2-1.4-0.5c-0.3-0.4-0.5-0.9-0.5-1.8v-2.4h-0.8V300h0.8v-1.3L265.1,298.3z"/>
	</g>
	<g>
		<path fill="#FFFFFF" d="M267.5,297.4h1.8v3.4h0c0.2-0.3,0.4-0.4,0.7-0.6c0.3-0.1,0.6-0.2,1-0.2c1.2,0,2.1,0.8,2.1,2.6v3.5h-1.8
			v-3.3c0-0.8-0.3-1.3-1-1.3c-0.5,0-0.8,0.3-0.9,0.6c0,0.1-0.1,0.3-0.1,0.4v3.5h-1.8V297.4z"/>
	</g>
</g>
<g>
	<g>
		<path fill="#FFFFFF" d="M112.4,284.8h1.9v6.6h3.2v1.6h-5.1V284.8z"/>
	</g>
	<g>
		<path fill="#FFFFFF" d="M124.2,289.9c0,2.2-1.5,3.2-3.1,3.2c-1.7,0-3.1-1.1-3.1-3.1c0-1.9,1.3-3.1,3.2-3.1
			C123,286.9,124.2,288.1,124.2,289.9z M119.9,290c0,1,0.4,1.8,1.2,1.8c0.7,0,1.2-0.7,1.2-1.8c0-0.9-0.3-1.8-1.2-1.8
			C120.3,288.2,119.9,289.1,119.9,290z"/>
	</g>
	<g>
		<path fill="#FFFFFF" d="M125.4,288.9c0-0.7,0-1.4,0-1.9h1.6l0.1,0.8h0c0.2-0.4,0.8-0.9,1.8-0.9c1.2,0,2.1,0.8,2.1,2.5v3.5h-1.8
			v-3.3c0-0.8-0.3-1.3-0.9-1.3c-0.5,0-0.8,0.4-0.9,0.7c0,0.1-0.1,0.3-0.1,0.5v3.4h-1.8V288.9z"/>
	</g>
	<g>
		<path fill="#FFFFFF" d="M138.1,287c0,0.4,0,0.9,0,1.8v3.3c0,1.1-0.2,2.1-0.9,2.7c-0.7,0.6-1.5,0.7-2.4,0.7c-0.8,0-1.6-0.2-2.1-0.5
			l0.4-1.4c0.4,0.2,1,0.4,1.7,0.4c0.9,0,1.5-0.5,1.5-1.6v-0.4h0c-0.4,0.5-0.9,0.8-1.6,0.8c-1.5,0-2.5-1.2-2.5-2.9
			c0-1.9,1.2-3.1,2.7-3.1c0.8,0,1.3,0.4,1.6,0.8h0l0.1-0.7H138.1z M136.2,289.4c0-0.1,0-0.2,0-0.3c-0.1-0.5-0.5-0.8-1-0.8
			c-0.7,0-1.2,0.6-1.2,1.7c0,0.9,0.4,1.6,1.2,1.6c0.5,0,0.8-0.3,1-0.8c0-0.1,0.1-0.3,0.1-0.5V289.4z"/>
	</g>
	<g>
		<path fill="#FFFFFF" d="M143.2,286.3H141v-1.6h6.3v1.6H145v6.6h-1.9V286.3z"/>
	</g>
	<g>
		<path fill="#FFFFFF" d="M148.6,290.6c0.1,0.8,0.8,1.1,1.7,1.1c0.6,0,1.1-0.1,1.6-0.2l0.2,1.2c-0.6,0.2-1.3,0.4-2.1,0.4
			c-2,0-3.2-1.2-3.2-3c0-1.5,0.9-3.2,3-3.2c1.9,0,2.6,1.5,2.6,3c0,0.3,0,0.6-0.1,0.7H148.6z M150.8,289.3c0-0.4-0.2-1.2-1-1.2
			c-0.8,0-1.1,0.7-1.1,1.2H150.8z"/>
	</g>
	<g>
		<path fill="#FFFFFF" d="M153.6,289c0-0.9,0-1.4,0-2h1.6l0.1,1.1h0c0.3-0.9,1-1.2,1.6-1.2c0.2,0,0.3,0,0.4,0v1.7
			c-0.1,0-0.3,0-0.5,0c-0.7,0-1.1,0.4-1.3,0.9c0,0.1,0,0.3,0,0.4v3h-1.8V289z"/>
	</g>
	<g>
		<path fill="#FFFFFF" d="M158.2,288.9c0-0.7,0-1.4,0-1.9h1.6l0.1,0.8h0c0.3-0.4,0.8-0.9,1.8-0.9c0.8,0,1.4,0.4,1.6,1h0
			c0.2-0.3,0.5-0.5,0.8-0.7c0.3-0.2,0.7-0.3,1.1-0.3c1.1,0,2,0.8,2,2.6v3.5h-1.8v-3.2c0-0.9-0.3-1.4-0.9-1.4c-0.4,0-0.7,0.3-0.8,0.6
			c0,0.1-0.1,0.3-0.1,0.5v3.5h-1.8v-3.3c0-0.8-0.3-1.3-0.8-1.3c-0.5,0-0.8,0.4-0.9,0.7c-0.1,0.1-0.1,0.3-0.1,0.5v3.5h-1.8V288.9z"/>
	</g>
	<g>
		<path fill="#FFFFFF" d="M134.3,307.3c-0.3,0.2-1.1,0.4-2.1,0.4c-2.8,0-4.3-1.8-4.3-4.1c0-2.8,2-4.3,4.5-4.3c1,0,1.7,0.2,2,0.4
			L134,301c-0.4-0.2-0.9-0.3-1.6-0.3c-1.5,0-2.6,0.9-2.6,2.7c0,1.6,1,2.7,2.6,2.7c0.6,0,1.2-0.1,1.5-0.3L134.3,307.3z"/>
	</g>
	<g>
		<path fill="#FFFFFF" d="M138.7,307.5l-0.1-0.6h0c-0.4,0.5-1,0.7-1.7,0.7c-1.2,0-1.9-0.9-1.9-1.8c0-1.5,1.4-2.3,3.5-2.3v-0.1
			c0-0.3-0.2-0.8-1.1-0.8c-0.6,0-1.2,0.2-1.6,0.4l-0.3-1.2c0.4-0.2,1.2-0.5,2.3-0.5c2,0,2.6,1.2,2.6,2.6v2.1c0,0.6,0,1.1,0.1,1.4
			H138.7z M138.5,304.7c-1,0-1.7,0.2-1.7,0.9c0,0.5,0.3,0.7,0.7,0.7c0.5,0,0.8-0.3,1-0.7c0-0.1,0-0.2,0-0.3V304.7z"/>
	</g>
	<g>
		<path fill="#FFFFFF" d="M141.7,303.5c0-0.9,0-1.4,0-2h1.6l0.1,1.1h0c0.3-0.9,1-1.2,1.6-1.2c0.2,0,0.3,0,0.4,0v1.7
			c-0.1,0-0.3,0-0.5,0c-0.7,0-1.1,0.4-1.3,0.9c0,0.1,0,0.3,0,0.4v3h-1.8V303.5z"/>
	</g>
	<g>
		<path fill="#FFFFFF" d="M147.7,305.1c0.1,0.8,0.8,1.1,1.7,1.1c0.6,0,1.1-0.1,1.6-0.2l0.2,1.2c-0.6,0.2-1.3,0.4-2.1,0.4
			c-2,0-3.2-1.2-3.2-3c0-1.5,0.9-3.2,3-3.2c1.9,0,2.6,1.5,2.6,3c0,0.3,0,0.6-0.1,0.7H147.7z M149.8,303.8c0-0.4-0.2-1.2-1-1.2
			c-0.8,0-1.1,0.7-1.1,1.2H149.8z"/>
	</g>
</g>
<g>
	<g>
		<path fill="#FFFFFF" d="M72.6,153.1c0.5-0.1,1.5-0.2,2.4-0.2c1.1,0,1.8,0.1,2.4,0.5c0.6,0.3,1,0.9,1,1.6c0,0.7-0.4,1.4-1.3,1.7v0
			c0.9,0.3,1.6,1,1.6,2c0,0.7-0.3,1.3-0.8,1.7c-0.6,0.5-1.6,0.7-3.2,0.7c-0.9,0-1.6-0.1-2-0.1V153.1z M74.4,156.2H75
			c1,0,1.5-0.4,1.5-1c0-0.6-0.5-0.9-1.3-0.9c-0.4,0-0.6,0-0.8,0V156.2z M74.4,159.9c0.2,0,0.4,0,0.7,0c0.8,0,1.6-0.3,1.6-1.2
			c0-0.8-0.7-1.2-1.7-1.2h-0.6V159.9z"/>
	</g>
	<g>
		<path fill="#FFFFFF" d="M81.4,158.8c0.1,0.8,0.8,1.1,1.7,1.1c0.6,0,1.1-0.1,1.6-0.2l0.2,1.2c-0.6,0.2-1.3,0.4-2.1,0.4
			c-2,0-3.2-1.2-3.2-3c0-1.5,0.9-3.2,3-3.2c1.9,0,2.6,1.5,2.6,3c0,0.3,0,0.6-0.1,0.7H81.4z M83.5,157.5c0-0.4-0.2-1.2-1-1.2
			c-0.8,0-1.1,0.7-1.1,1.2H83.5z"/>
	</g>
	<g>
		<path fill="#FFFFFF" d="M86.3,152.6h1.8v3.4h0c0.2-0.3,0.4-0.4,0.7-0.6c0.3-0.1,0.6-0.2,1-0.2c1.2,0,2.1,0.8,2.1,2.6v3.5h-1.8
			v-3.3c0-0.8-0.3-1.3-1-1.3c-0.5,0-0.8,0.3-0.9,0.6c0,0.1-0.1,0.3-0.1,0.4v3.5h-1.8V152.6z"/>
	</g>
	<g>
		<path fill="#FFFFFF" d="M96.8,161.2l-0.1-0.6h0c-0.4,0.5-1,0.7-1.7,0.7c-1.2,0-1.9-0.9-1.9-1.8c0-1.5,1.4-2.3,3.5-2.3v-0.1
			c0-0.3-0.2-0.8-1.1-0.8c-0.6,0-1.2,0.2-1.6,0.4l-0.3-1.2c0.4-0.2,1.2-0.5,2.3-0.5c2,0,2.6,1.2,2.6,2.6v2.1c0,0.6,0,1.1,0.1,1.4
			H96.8z M96.6,158.4c-1,0-1.7,0.2-1.7,0.9c0,0.5,0.3,0.7,0.7,0.7c0.5,0,0.8-0.3,1-0.7c0-0.1,0-0.2,0-0.3V158.4z"/>
	</g>
	<g>
		<path fill="#FFFFFF" d="M101.1,155.3l0.8,2.8c0.1,0.5,0.3,1,0.3,1.4h0c0.1-0.5,0.2-0.9,0.3-1.4l0.8-2.8h1.9l-2.2,5.9h-1.8
			l-2.2-5.9H101.1z"/>
	</g>
	<g>
		<path fill="#FFFFFF" d="M108,153.6c0,0.5-0.4,0.9-1,0.9c-0.6,0-1-0.4-1-0.9c0-0.5,0.4-0.9,1-0.9C107.6,152.7,108,153.1,108,153.6z
			 M106.1,161.2v-5.9h1.8v5.9H106.1z"/>
	</g>
	<g>
		<path fill="#FFFFFF" d="M115.3,158.1c0,2.2-1.5,3.2-3.1,3.2c-1.7,0-3.1-1.1-3.1-3.1c0-1.9,1.3-3.1,3.2-3.1
			C114.1,155.1,115.3,156.4,115.3,158.1z M111,158.2c0,1,0.4,1.8,1.2,1.8c0.7,0,1.2-0.7,1.2-1.8c0-0.9-0.3-1.8-1.2-1.8
			C111.3,156.4,111,157.3,111,158.2z"/>
	</g>
	<g>
		<path fill="#FFFFFF" d="M116.4,157.2c0-0.9,0-1.4,0-2h1.6l0.1,1.1h0c0.3-0.9,1-1.2,1.6-1.2c0.2,0,0.3,0,0.4,0v1.7
			c-0.1,0-0.3,0-0.5,0c-0.7,0-1.1,0.4-1.3,0.9c0,0.1,0,0.3,0,0.4v3h-1.8V157.2z"/>
	</g>
	<g>
		<path fill="#FFFFFF" d="M124.3,161.2l-0.1-0.6h0c-0.4,0.5-1,0.7-1.7,0.7c-1.2,0-1.9-0.9-1.9-1.8c0-1.5,1.4-2.3,3.5-2.3v-0.1
			c0-0.3-0.2-0.8-1.1-0.8c-0.6,0-1.2,0.2-1.6,0.4l-0.3-1.2c0.4-0.2,1.2-0.5,2.3-0.5c2,0,2.6,1.2,2.6,2.6v2.1c0,0.6,0,1.1,0.1,1.4
			H124.3z M124,158.4c-1,0-1.7,0.2-1.7,0.9c0,0.5,0.3,0.7,0.7,0.7c0.5,0,0.8-0.3,1-0.7c0-0.1,0-0.2,0-0.3V158.4z"/>
	</g>
	<g>
		<path fill="#FFFFFF" d="M127.3,152.6h1.8v8.6h-1.8V152.6z"/>
	</g>
	<g>
		<path fill="#FFFFFF" d="M85.5,167.5v3.1h3v-3.1h1.8v8.2h-1.8v-3.4h-3v3.4h-1.9v-8.2H85.5z"/>
	</g>
	<g>
		<path fill="#FFFFFF" d="M93.3,173.3c0.1,0.8,0.8,1.1,1.7,1.1c0.6,0,1.1-0.1,1.6-0.2l0.2,1.2c-0.6,0.2-1.3,0.4-2.1,0.4
			c-2,0-3.2-1.2-3.2-3c0-1.5,0.9-3.2,3-3.2c1.9,0,2.6,1.5,2.6,3c0,0.3,0,0.6-0.1,0.7H93.3z M95.5,172.1c0-0.4-0.2-1.2-1-1.2
			c-0.8,0-1.1,0.7-1.1,1.2H95.5z"/>
	</g>
	<g>
		<path fill="#FFFFFF" d="M101.7,175.7l-0.1-0.6h0c-0.4,0.5-1,0.7-1.7,0.7c-1.2,0-1.9-0.9-1.9-1.8c0-1.5,1.4-2.3,3.5-2.3v-0.1
			c0-0.3-0.2-0.8-1.1-0.8c-0.6,0-1.2,0.2-1.6,0.4l-0.3-1.2c0.4-0.2,1.2-0.5,2.3-0.5c2,0,2.6,1.2,2.6,2.6v2.1c0,0.6,0,1.1,0.1,1.4
			H101.7z M101.5,172.9c-1,0-1.7,0.2-1.7,0.9c0,0.5,0.3,0.7,0.7,0.7c0.5,0,0.8-0.3,1-0.7c0-0.1,0-0.2,0-0.3V172.9z"/>
	</g>
	<g>
		<path fill="#FFFFFF" d="M104.7,167.1h1.8v8.6h-1.8V167.1z"/>
	</g>
	<g>
		<path fill="#FFFFFF" d="M110.1,168.1v1.7h1.3v1.4h-1.3v2.1c0,0.7,0.2,1,0.7,1c0.2,0,0.4,0,0.5,0l0,1.4c-0.2,0.1-0.7,0.2-1.2,0.2
			c-0.6,0-1.1-0.2-1.4-0.5c-0.3-0.4-0.5-0.9-0.5-1.8v-2.4h-0.8v-1.4h0.8v-1.3L110.1,168.1z"/>
	</g>
	<g>
		<path fill="#FFFFFF" d="M112.5,167.1h1.8v3.4h0c0.2-0.3,0.4-0.4,0.7-0.6c0.3-0.1,0.6-0.2,1-0.2c1.2,0,2.1,0.8,2.1,2.6v3.5h-1.8
			v-3.3c0-0.8-0.3-1.3-1-1.3c-0.5,0-0.8,0.3-0.9,0.6c0,0.1-0.1,0.3-0.1,0.4v3.5h-1.8V167.1z"/>
	</g>
</g>
</svg>
