<?xml version="1.0" encoding="utf-8"?>
<!-- Generator: Adobe Illustrator 15.1.0, SVG Export Plug-In . SVG Version: 6.00 Build 0)  -->
<!DOCTYPE svg PUBLIC "-//W3C//DTD SVG 1.1//EN" "http://www.w3.org/Graphics/SVG/1.1/DTD/svg11.dtd">
<svg version="1.1" xmlns="http://www.w3.org/2000/svg" xmlns:xlink="http://www.w3.org/1999/xlink" x="0px" y="0px" width="200px"
	 height="200px" viewBox="1196.5 -60 200 200" enable-background="new 1196.5 -60 200 200" xml:space="preserve">
<g id="Layer_1" display="none">
	
		<image overflow="visible" enable-background="new    " width="200" height="200" xlink:href="806AD1F7.jpeg"  transform="matrix(0.5 0 0 0.5 1199.8701 0.0371)">
	</image>
	
		<image overflow="visible" enable-background="new    " width="201" height="201" xlink:href="806AD1F5.jpeg"  transform="matrix(0.4975 0 0 0.4975 1200 0.4995)">
	</image>
</g>
<g id="Layer_2" display="none">
	<g display="inline">
		<path fill="#FFFFFF" d="M1355.853-56.8h-118.108c-10.848,0-19.65,8.801-19.65,19.65v156.181c0,10.851,8.802,19.651,19.549,19.651
			h118.108c10.747,0,19.549-8.801,19.549-19.651V-37.149C1375.401-47.999,1366.6-56.8,1355.853-56.8z M1366.088,118.112
			L1366.088,118.112h-138.579l0,0V-36.434l0,0h138.579l0,0V118.112z M1303.042,131.007c0,2.148-1.739,3.889-3.889,3.889h-4.811
			c-2.149,0-3.891-1.74-3.891-3.889v-4.812c0-2.148,1.741-3.888,3.891-3.888h4.811c2.149,0,3.889,1.739,3.889,3.888V131.007z"/>
		<g>
			<g>
				<path fill="#FFFFFF" d="M1320.032-12.382c-9.006,0-17.193,3.685-22.927,10.03c-5.73-6.448-13.816-10.03-22.924-10.03
					c-16.581,0-33.262,12.385-33.262,36.128c0,2.558,0.305,5.015,0.817,7.473h9.519c-0.613-2.458-0.921-5.016-0.921-7.473
					c0-18.422,12.484-26.814,23.949-26.814c8.087,0,15.146,4.094,18.832,11.053c1.638,2.967,6.549,2.967,8.188,0
					c3.685-6.959,10.747-11.053,18.831-11.053c11.976,0,23.949,9.211,23.949,26.814c0,24.769-30.191,47.388-46.362,59.567
					l-0.511,0.408l-0.513-0.408c-11.361-8.496-29.477-22.21-39.402-38.074h-10.747c10.13,19.755,31.42,35.719,44.521,45.544
					l3.273,2.457c0.819,0.613,1.843,0.923,2.763,0.923c1.023,0,1.945-0.31,2.765-0.923l3.274-2.457
					c17.501-13.099,50.15-37.561,50.15-67.037C1353.396,0.003,1336.613-12.382,1320.032-12.382z M1261.9,40.02l3.172-2.763
					l6.958,18.729c0.41,0.921,1.229,1.535,2.354,1.535c1.024-0.102,1.844-0.817,2.149-1.739l7.574-32.239l6.448,45.953
					c0.203,1.126,1.023,1.943,2.149,2.048h0.102c1.022,0,2.047-0.718,2.251-1.741l8.7-35.616l2.046,4.912
					c0.41,0.921,1.23,1.434,2.151,1.434h10.234l0,0c1.023,3.07,3.888,5.425,7.267,5.425c4.195,0,7.677-3.481,7.677-7.676
					c0-4.198-3.481-7.678-7.677-7.678c-3.48,0-6.347,2.252-7.267,5.424l0,0h-8.699l-4.197-10.131
					c-0.408-0.921-1.329-1.535-2.354-1.434c-1.023,0.103-1.843,0.818-2.046,1.74l-7.575,30.806l-6.448-46.259
					c-0.204-1.127-1.126-1.945-2.148-2.047c-1.023-0.103-2.149,0.715-2.353,1.739l-8.7,36.845l-5.426-14.738
					c-0.308-0.717-0.819-1.228-1.637-1.433c-0.719-0.206-1.535,0-2.048,0.511l-5.116,4.3h-25.793c-1.33,0-2.353,1.023-2.353,2.355
					c0,1.329,1.023,2.352,2.353,2.352h26.715C1260.979,40.634,1261.489,40.431,1261.9,40.02z M1325.661,35.211
					c1.637,0,3.07,1.33,3.07,3.071c0,1.637-1.329,3.07-3.07,3.07c-1.638,0-3.071-1.332-3.071-3.07
					C1322.59,36.541,1323.922,35.211,1325.661,35.211z"/>
			</g>
		</g>
	</g>
</g>
<g id="webinar_education" display="none">
	<g display="inline">
		<path fill="#FFFFFF" d="M1363.332,35.741l-12.383,5.05V88.39c7.359-4.96,12.434-11.596,12.434-21.315L1363.332,35.741z"/>
		<path fill="#FFFFFF" d="M1299.811-26.719l92.587,37.486c1.259,0.368,1.81,2.715,0.052,3.594l-46.955,18.875l-38.614-18.717
			c0.394-0.669,0.655-1.364,0.655-2.125c0-3.437-4.723-6.244-10.558-6.244c-5.838,0-10.56,2.807-10.56,6.244
			c0,3.461,4.722,6.257,10.56,6.257c0.851,0,1.689-0.08,2.479-0.198l37.485,18.219l-36.986,14.86
			c-1.574,0.643-3.662,0.997-6.021-0.026l-92.222-37.053c-1.547-0.748-1.547-3.083,0.158-3.805l92.232-37.354
			C1295.939-27.558,1298.405-27.296,1299.811-26.719z"/>
		<path fill="#FFFFFF" d="M1301.239,60.699l33.996-13.678v58.655c0,4.342,3.806,8.158,8.37,7.817
			c-1.443,3.187-4.631,5.431-8.37,5.431c-5.089,0-9.207-4.118-9.207-9.194V98.673c-19.897,4.682-48.267,4.485-66.144-2.31
			c-15.124-5.744-29.315-13.115-29.315-29.289V36.659c0-0.314,0.052-0.603,0.052-0.918l62.604,25.158
			C1296.098,62.313,1298.366,61.842,1301.239,60.699z"/>
	</g>
</g>
<g id="Integrated_Workflow_Guide" display="none">
	<path display="inline" fill="#FFFFFF" d="M1370.211-44.225c-10.85,0-20.079,7.171-23.166,17.019h-139.412
		c-4.006,0-7.242,3.25-7.242,7.256v131.279c0,4.006,3.236,7.241,7.242,7.241h162.578c13.386,0,24.274-10.889,24.274-24.275V-19.95
		C1394.485-33.335,1383.597-44.225,1370.211-44.225z M1370.211,104.087h-155.336v-116.81h131.073c0,0-0.041,96.156,0,96.485
		c-0.37,2.276,0.453,4.718,2.263,6.446c2.921,2.743,7.502,2.606,10.232-0.303c4.277-4.525,7.447-5.403,11.768-5.403
		c5.418,0,9.792,4.401,9.792,9.792C1380.003,99.698,1375.629,104.087,1370.211,104.087z M1380.003,72.119
		c-2.989-1.33-6.311-2.072-9.792-2.072c-3.594,0-6.803,0.48-9.779,1.482V-19.95c0-5.403,4.376-9.806,9.779-9.806
		c5.418,0,9.792,4.403,9.792,9.806V72.119z M1235.968,90.153h26.196V79.813h-15.883V69.155h16.075V58.829h-16.075V11.567h28.966
		v55.544h10.328V11.567h28.952v28.939h-18.021v26.605h10.341v-16.25h7.681v28.951h-37.029v10.341h47.371V1.226h-88.901V90.153z"/>
</g>
<g id="Build_Guide" display="none">
	<path display="inline" fill="#FFFFFF" d="M1261.709,38.686l18.773-15.026c-1.6-4.59-2.58-9.299-3.008-14.044l-11.726-11.69
		l10.746-10.728c0.378-0.38,0.582-0.879,0.618-1.412l1.137-24.618c0.015-0.583-0.192-1.187-0.622-1.581
		c-0.413-0.431-1.03-0.671-1.597-0.619l-24.62,1.118c-0.517,0.018-1.03,0.257-1.392,0.62L1201.78,8.944
		c-0.825,0.825-0.825,2.149,0,2.992l23.5,23.483c0.413,0.43,0.945,0.618,1.478,0.618c0.568,0,1.1-0.188,1.512-0.618l15.078-15.076
		L1261.709,38.686z M1344.935,77.092c-4.764-0.429-9.439-1.444-13.944-2.974l-15.076,18.809l27.559,27.523
		c2.338,2.339,6.155,2.339,8.477,0l13.942-13.91c2.354-2.354,2.354-6.152,0-8.489L1344.935,77.092z M1389.168-5.772l-20.922,20.923
		c-6.825,6.808-17.949,6.791-24.74,0.017l-5.208-5.192c-6.772-6.808-6.809-17.931,0-24.739l20.957-20.922
		c-17.209-6.052-37.117-2.234-50.887,11.519c-15.489,15.49-18.415,38.818-8.803,57.283l-60.636,48.6
		c-1.289,0.998-2.562,2.27-3.644,3.61c-8.045,10.074-6.447,24.791,3.644,32.854c10.076,8.078,24.774,6.446,32.87-3.628
		l48.567-60.635c18.48,9.611,41.776,6.669,57.282-8.818C1391.421,31.329,1395.218,11.438,1389.168-5.772z M1262.791,105.527
		c-4.106,4.109-10.761,4.109-14.853,0c-4.091-4.092-4.091-10.728,0-14.819c4.092-4.092,10.746-4.074,14.853,0
		C1266.885,94.8,1266.885,101.436,1262.791,105.527z"/>
</g>
<g id="Project_Plan" display="none">
	<path id="_x31__2_" display="inline" fill="#FFFFFF" d="M1391.79,107.548l-20.195-60.077c-2.101-6.239-7.911-10.416-14.475-10.416
		h-29.571c7.938-14.371,14.371-28.988,14.371-38.573c0-25.305-20.57-45.875-45.863-45.875c-25.292,0-45.861,20.571-45.861,45.875
		c0,9.585,6.432,24.202,14.357,38.573h-29.559c-6.576,0-12.386,4.177-14.487,10.416l-20.195,60.077
		c-1.557,4.67-0.791,9.819,2.075,13.801c2.853,3.994,7.497,6.355,12.399,6.355h162.529c4.902,0,9.546-2.361,12.412-6.355
		C1392.581,117.367,1393.359,112.218,1391.79,107.548z M1296.057-22.023c11.311,0,20.52,9.195,20.52,20.505
		c0,11.323-9.209,20.506-20.52,20.506c-11.31,0-20.519-9.183-20.519-20.506C1275.538-12.828,1284.747-22.023,1296.057-22.023z
		 M1379.131,113.735c-0.246,0.351-0.817,0.921-1.815,0.921h-162.529c-0.999,0-1.556-0.57-1.816-0.921
		c-0.233-0.351-0.623-1.076-0.298-2.023l20.194-60.091c0.312-0.908,1.167-1.531,2.127-1.531h36.161c0.312,0,0.623-0.026,0.934-0.065
		c10.351,16.979,20.648,31.064,21.505,32.257c0.597,0.778,1.491,1.245,2.464,1.245c0.974,0,1.881-0.467,2.465-1.245
		c0.855-1.192,11.129-15.265,21.479-32.231c0.233,0.013,0.467,0.039,0.701,0.039h36.419c0.961,0,1.791,0.623,2.102,1.531
		l20.208,60.091C1379.74,112.659,1379.378,113.385,1379.131,113.735z"/>
</g>
<g id="Refernce_x2F_Supporting_Information" display="none">
	<path display="inline" fill="#FFFFFF" d="M1379.043,59.569c-9.426,39.169-41.74,66.537-82.589,66.537
		c-21.587,0-42.524-8.532-58.25-23.477l-14.278,14.279c-1.318,1.332-3.11,2.099-4.964,2.099c-3.907,0-7.099-3.208-7.099-7.081V62.32
		c0-3.874,3.191-7.083,7.099-7.083h49.588c3.875,0,7.083,3.209,7.083,7.083c0,1.888-0.766,3.647-2.102,4.982l-15.174,15.172
		c10.42,9.736,24.242,15.271,38.553,15.271c19.683,0,37.965-10.177,48.254-27.009c2.654-4.314,3.988-8.515,5.877-12.943
		c0.537-1.562,1.661-2.557,3.305-2.557h21.262c1.987,0,3.55,1.663,3.55,3.534C1379.157,58.998,1379.157,59.324,1379.043,59.569z
		 M1381.925,19.812c0,3.875-3.224,7.083-7.099,7.083h-49.588c-3.877,0-7.083-3.208-7.083-7.083c0-1.887,0.767-3.662,2.102-4.997
		l15.269-15.27c-10.517-9.752-24.354-15.174-38.615-15.174c-19.731,0-37.998,10.175-48.286,27.025
		c-2.67,4.314-3.99,8.515-5.895,12.943c-0.521,1.563-1.645,2.557-3.306,2.557h-22.024c-1.987,0-3.551-1.661-3.551-3.55
		c0-0.21,0-0.553,0-0.781c9.542-39.3,42.183-66.537,83.062-66.537c21.685,0,42.832,8.646,58.544,23.476l14.407-14.278
		c1.335-1.335,3.093-2.099,4.965-2.099c3.875,0,7.099,3.207,7.099,7.081V19.812z"/>
</g>
<g id="FAQs" display="none">
	<path display="inline" fill="#FFFFFF" d="M1329.198,44.896c-7.636,4.39-12.421,13.288-12.421,17.047
		c0,2.833-2.174,6.181-5.14,6.181h-30.98c-2.848,0-4.668-4.392-4.668-7.238v-5.8c0-15.608,15.489-29.042,26.868-34.195
		c9.926-4.508,14.036-8.781,14.036-17.047c0-7.224-9.396-13.684-19.85-13.684c-5.801,0-11.101,1.82-13.948,3.744
		c-3.113,2.204-6.197,5.301-13.802,14.858c-1.058,1.278-2.585,2.055-3.994,2.055c-1.175,0-2.216-0.38-3.229-1.026l-21.172-16.137
		c-2.202-1.674-2.702-4.508-1.292-6.842c13.934-23.096,33.564-34.328,59.875-34.328c27.632,0,58.612,22.068,58.612,51.623
		C1358.093,28.627,1341.429,38.053,1329.198,44.896z M1317.305,123.035c0,2.832-2.335,5.168-5.168,5.168h-30.965
		c-2.85,0-5.183-2.336-5.183-5.168V92.07c0-2.85,2.333-5.169,5.183-5.169h30.965c2.833,0,5.168,2.319,5.168,5.169V123.035z"/>
</g>
<g id="Change_log" display="none">
	<path display="inline" fill="#FFFFFF" d="M1220.977,7.483c-11.126,0-20.156-9.046-20.156-20.14c0-11.126,9.03-20.139,20.156-20.139
		c11.094,0,20.123,9.012,20.123,20.139C1241.1-1.563,1232.071,7.483,1220.977,7.483z M1220.977,61.166
		c-11.126,0-20.156-9.029-20.156-20.157c0-11.11,9.03-20.123,20.156-20.123c11.094,0,20.123,9.013,20.123,20.123
		C1241.1,52.137,1232.071,61.166,1220.977,61.166z M1220.977,114.832c-11.126,0-20.156-9.013-20.156-20.138
		c0-11.112,9.03-20.125,20.156-20.125c11.094,0,20.123,9.013,20.123,20.125C1241.1,105.819,1232.071,114.832,1220.977,114.832z
		 M1394.808-2.596c0,1.787-1.572,3.36-3.343,3.36h-127.489c-1.803,0-3.376-1.573-3.376-3.36v-20.123
		c0-1.802,1.573-3.358,3.376-3.358h127.489c1.771,0,3.343,1.557,3.343,3.358V-2.596z M1394.808,51.088
		c0,1.785-1.572,3.359-3.343,3.359h-127.489c-1.803,0-3.376-1.574-3.376-3.359v-20.14c0-1.769,1.573-3.342,3.376-3.342h127.489
		c1.771,0,3.343,1.573,3.343,3.342V51.088z M1394.808,104.771c0,1.785-1.572,3.342-3.343,3.342h-127.489
		c-1.803,0-3.376-1.557-3.376-3.342V84.631c0-1.77,1.573-3.358,3.376-3.358h127.489c1.771,0,3.343,1.589,3.343,3.358V104.771z"/>
</g>
<g id="Standard_Content" display="none">
	<path display="inline" fill="#FFFFFF" d="M1374.293,52.003c0.663,2.408,0.986,5.026,0.986,7.532c0,5.464-1.423,10.911-4.154,15.713
		c0.228,1.536,0.34,3.169,0.34,4.688c0,6.999-2.295,13.982-6.563,19.431c0.226,20.643-13.854,32.751-34.045,32.751h-3.928h-10.136
		c-15.52,0-29.923-4.576-44.326-9.602c-3.168-1.084-12.011-4.365-15.065-4.365h-31.442c-7.743,0-13.95-6.207-13.95-13.967V34.318
		c0-7.744,6.208-13.967,13.95-13.967h29.923c4.234-2.845,11.671-12.673,14.937-16.909c3.701-4.802,7.532-9.506,11.688-13.984
		c6.546-6.983,3.054-24.231,13.966-34.933c2.618-2.49,6.11-4.026,9.813-4.026c11.363,0,22.276,4.026,27.628,14.63
		c3.377,6.643,3.83,12.98,3.83,20.304c0,7.63-1.973,14.193-5.253,20.95h19.22c15.065,0,27.948,12.771,27.948,27.836
		C1379.659,40.541,1377.801,46.765,1374.293,52.003z M1349.608,21.418h-36.5c0-12.157,9.957-20.95,9.957-33.204
		c0-12.124-2.392-19.883-16.603-19.883c-6.626,6.725-3.199,22.583-13.271,33.171c-2.894,3.006-5.382,6.208-7.985,9.44
		c-4.655,5.997-16.988,23.73-25.186,23.73h-3.313v66.375h3.313c5.804,0,15.357,3.718,20.951,5.69
		c11.396,3.944,23.229,7.564,35.466,7.564h12.527c11.721,0,19.917-4.655,19.917-17.296c0-1.973-0.211-3.962-0.519-5.82
		c4.366-2.393,6.742-8.31,6.742-13.062c0-2.489-0.63-4.979-1.858-7.162c3.523-3.313,5.496-7.451,5.496-12.334
		c0-3.313-1.456-8.179-3.638-10.685c4.882-0.097,7.776-9.424,7.776-13.271C1362.882,27.625,1356.56,21.418,1349.608,21.418z"/>
</g>
<g id="Decision_Log">
	<g>
		<path id="_x31_0_2_" fill="#FFFFFF" d="M1362.335,31.509V21.63c0-35.728-29.085-64.8-64.813-64.8
			c-35.743,0-64.801,29.072-64.801,64.8v9.879c-7.9,3.363-13.454,11.194-13.454,20.309v16.875c0,12.183,9.893,22.076,22.061,22.076
			h2.884c7.094,0,12.888-5.78,12.888-12.876V42.632c0-7.109-5.794-12.875-12.888-12.875h-0.595V21.63
			c0-29.708,24.196-53.889,53.904-53.889c29.707,0,53.875,24.181,53.875,53.889v8.126h-0.565c-7.109,0-12.89,5.766-12.89,12.875
			v35.262c0,6.317,4.579,11.575,10.6,12.678c-2.402,9.921-11.08,17.426-21.623,18.033c-0.383-0.579-0.82-1.116-1.315-1.611
			c-2.162-2.176-5.045-3.363-8.125-3.363h-11.151c-6.317,0-11.462,5.145-11.477,11.462c-0.014,6.331,5.159,11.462,11.477,11.462
			l11.151,0.015l0,0c4.79,0,8.903-2.939,10.627-7.095c16.226-1.174,29.396-13.64,31.657-29.553
			c9.244-2.657,16.014-11.15,16.014-21.228V51.818C1375.775,42.703,1370.221,34.873,1362.335,31.509z M1317.478,122.398
			L1317.478,122.398L1317.478,122.398L1317.478,122.398z"/>
	</g>
</g>
</svg>
