<?xml version="1.0" encoding="utf-8"?>
<!-- Generator: Adobe Illustrator 15.1.0, SVG Export Plug-In . SVG Version: 6.00 Build 0)  -->
<!DOCTYPE svg PUBLIC "-//W3C//DTD SVG 1.1//EN" "http://www.w3.org/Graphics/SVG/1.1/DTD/svg11.dtd">
<svg version="1.1" xmlns="http://www.w3.org/2000/svg" xmlns:xlink="http://www.w3.org/1999/xlink" x="0px" y="0px" width="200px"
	 height="200px" viewBox="0 0 200 200" enable-background="new 0 0 200 200" xml:space="preserve">
<g id="alarm" display="none">
	
		<image overflow="visible" width="300" height="300" xlink:href="A1EF8A1B.jpg"  transform="matrix(0.4975 0 0 0.4975 19.7085 38.2085)">
	</image>
	<g>
		<path display="inline" d="M74.375,85.75c0,0.804-0.407,1.458-0.908,1.458H62.366c-0.501,0-0.908-0.653-0.908-1.458l0,0
			c0-0.806,0.407-1.459,0.908-1.459h11.101C73.968,84.291,74.375,84.944,74.375,85.75L74.375,85.75z"/>
		<path display="inline" d="M126.125,85.75c0,0.804-0.406,1.458-0.908,1.458h-11.1c-0.502,0-0.908-0.653-0.908-1.458l0,0
			c0-0.806,0.406-1.459,0.908-1.459h11.1C125.719,84.291,126.125,84.944,126.125,85.75L126.125,85.75z"/>
		<path display="inline" d="M93.918,53.541c0.804,0,1.458,0.406,1.458,0.908v11.1c0,0.502-0.653,0.908-1.458,0.908l0,0
			c-0.806,0-1.459-0.406-1.459-0.908v-11.1C92.458,53.947,93.112,53.541,93.918,53.541L93.918,53.541z"/>
		<path display="inline" d="M77.222,95.85c0.393,0.702,0.357,1.471-0.082,1.715l-9.688,5.417c-0.438,0.244-1.111-0.129-1.504-0.83
			l0,0c-0.394-0.704-0.357-1.473,0.081-1.718l9.689-5.415C76.155,94.774,76.829,95.146,77.222,95.85L77.222,95.85z"/>
		<path display="inline" d="M121.971,69.933c0.393,0.702,0.357,1.471-0.082,1.715l-9.688,5.417c-0.439,0.244-1.111-0.129-1.504-0.83
			l0,0c-0.395-0.704-0.357-1.473,0.08-1.718l9.689-5.415C120.904,68.857,121.578,69.23,121.971,69.933L121.971,69.933z"/>
		<path display="inline" d="M121.604,102.434c-0.418,0.688-1.105,1.037-1.533,0.774l-9.49-5.756
			c-0.429-0.262-0.435-1.031-0.02-1.717l0,0c0.419-0.69,1.106-1.037,1.535-0.778l9.488,5.758
			C122.014,100.977,122.021,101.745,121.604,102.434L121.604,102.434z"/>
		<path display="inline" d="M77.021,76.267c-0.418,0.688-1.105,1.037-1.533,0.774l-9.49-5.756c-0.429-0.262-0.435-1.031-0.02-1.717
			l0,0c0.419-0.69,1.106-1.037,1.535-0.778l9.488,5.758C77.43,74.81,77.438,75.579,77.021,76.267L77.021,76.267z"/>
		<path display="inline" d="M84.225,69.095c-0.698,0.402-1.468,0.377-1.717-0.059l-5.543-9.616c-0.25-0.437,0.116-1.112,0.811-1.514
			l0,0c0.699-0.403,1.469-0.376,1.72,0.058l5.54,9.616C85.286,68.016,84.922,68.693,84.225,69.095L84.225,69.095z"/>
		<path display="inline" d="M110.408,57.965c0.69,0.415,1.043,1.101,0.781,1.529l-5.716,9.516c-0.26,0.43-1.027,0.439-1.717,0.027
			l0,0c-0.692-0.417-1.042-1.102-0.784-1.531l5.718-9.514C108.95,57.562,109.718,57.551,110.408,57.965L110.408,57.965z"/>
		<path display="inline" d="M93.759,73.848c-6.782,0-12.28,3.418-12.28,7.643v19.885h10.334V88.384c0-0.696,0.906-1.26,2.024-1.26
			c1.115,0,2.022,0.563,2.022,1.26v12.991h10.169V81.49C106.028,77.266,100.524,73.848,93.759,73.848z"/>
		<path display="inline" d="M107.07,105.049c0,1.659-0.836,3.007-1.873,3.007H82.309c-1.032,0-1.871-1.348-1.871-3.007l0,0
			c0-1.66,0.839-3.008,1.871-3.008h22.889C106.234,102.041,107.07,103.389,107.07,105.049L107.07,105.049z"/>
	</g>
	<g display="inline">
		<path fill="#FFFFFF" d="M42.223,116.241c0,2.423-1.225,4.392-2.734,4.392H6.045c-1.509,0-2.734-1.969-2.734-4.392l0,0
			c0-2.428,1.225-4.396,2.734-4.396h33.443C40.998,111.846,42.223,113.813,42.223,116.241L42.223,116.241z"/>
		<path fill="#FFFFFF" d="M198.125,116.241c0,2.423-1.224,4.392-2.735,4.392H161.95c-1.512,0-2.736-1.969-2.736-4.392l0,0
			c0-2.428,1.225-4.396,2.736-4.396h33.439C196.901,111.846,198.125,113.813,198.125,116.241L198.125,116.241z"/>
		<path fill="#FFFFFF" d="M101.099,19.208c2.423,0,4.39,1.224,4.39,2.736v33.438c0,1.513-1.967,2.736-4.39,2.736l0,0
			c-2.429,0-4.397-1.224-4.397-2.736V21.944C96.701,20.432,98.67,19.208,101.099,19.208L101.099,19.208z"/>
		<path fill="#FFFFFF" d="M50.799,146.667c1.185,2.115,1.076,4.43-0.247,5.166l-29.188,16.318c-1.321,0.736-3.348-0.388-4.53-2.501
			l0,0c-1.186-2.121-1.076-4.436,0.243-5.174l29.189-16.312C47.586,143.425,49.616,144.548,50.799,146.667L50.799,146.667z"/>
		<path fill="#FFFFFF" d="M185.609,68.59c1.183,2.116,1.077,4.432-0.246,5.167l-29.186,16.318c-1.323,0.736-3.348-0.388-4.53-2.501
			l0,0c-1.188-2.121-1.077-4.437,0.242-5.175l29.189-16.312C182.396,65.35,184.427,66.473,185.609,68.59L185.609,68.59z"/>
		<path fill="#FFFFFF" d="M184.507,166.501c-1.26,2.075-3.33,3.124-4.619,2.334l-28.59-17.343c-1.292-0.789-1.311-3.104-0.059-5.173
			l0,0c1.262-2.08,3.332-3.124,4.625-2.342l28.583,17.346C185.738,162.112,185.764,164.427,184.507,166.501L184.507,166.501z"/>
		<path fill="#FFFFFF" d="M50.194,87.673c-1.259,2.074-3.331,3.124-4.619,2.332l-28.59-17.341c-1.292-0.79-1.31-3.105-0.059-5.174
			l0,0c1.262-2.08,3.333-3.124,4.625-2.343l28.584,17.347C51.427,83.282,51.45,85.598,50.194,87.673L50.194,87.673z"/>
		<path fill="#FFFFFF" d="M71.896,66.065c-2.102,1.212-4.422,1.135-5.171-0.178L50.023,36.919c-0.751-1.315,0.351-3.351,2.442-4.562
			l0,0c2.106-1.215,4.424-1.132,5.182,0.174l16.69,28.97C75.094,62.816,73.998,64.854,71.896,66.065L71.896,66.065z"/>
		<path fill="#FFFFFF" d="M150.776,32.536c2.08,1.25,3.142,3.315,2.354,4.607l-17.22,28.666c-0.783,1.297-3.096,1.323-5.173,0.081
			l0,0c-2.085-1.254-3.139-3.318-2.362-4.612l17.226-28.661C146.385,31.32,148.696,31.288,150.776,32.536L150.776,32.536z"/>
		<path fill="#FFFFFF" d="M100.618,80.383c-20.432,0-36.996,10.298-36.996,23.025v59.904h31.133v-39.137
			c0-2.098,2.73-3.796,6.099-3.796c3.359,0,6.093,1.698,6.093,3.796v39.137h30.635v-59.904
			C137.582,90.682,121,80.383,100.618,80.383z"/>
		<path fill="#FFFFFF" d="M140.722,174.381c0,4.998-2.52,9.058-5.644,9.058H66.124c-3.109,0-5.636-4.06-5.636-9.058l0,0
			c0-5.003,2.527-9.063,5.636-9.063h68.954C138.202,165.318,140.722,169.378,140.722,174.381L140.722,174.381z"/>
	</g>
</g>
<g id="fees" display="none">
	<g display="inline">
		<path fill="#FFFFFF" d="M29.125,75.552h28.767V83H38.199v13.723h18.292v7.368H38.199v21.171h-9.075V75.552z"/>
		<path fill="#FFFFFF" d="M94.495,103.211H75.76v14.603h20.941v7.447H66.685V75.552h28.911V83H75.76v12.837h18.734V103.211z"/>
		<path fill="#FFFFFF" d="M132.491,103.211h-18.728v14.603h20.94v7.447h-30.015V75.552h28.909V83h-19.835v12.837h18.728V103.211z"/>
		<path fill="#FFFFFF" d="M142.542,115.379c2.877,1.693,7.376,3.169,12.024,3.169c5.754,0,8.997-2.728,8.997-6.781
			c0-3.763-2.507-5.977-8.775-8.263c-8.263-2.947-13.496-7.302-13.496-14.457c0-8.182,6.783-14.308,17.622-14.308
			c5.391,0,9.296,1.178,11.88,2.507l-2.143,7.304c-1.841-0.957-5.305-2.364-9.952-2.364c-5.754,0-8.188,3.027-8.188,5.977
			c0,3.839,2.877,5.605,9.511,8.189c8.63,3.243,12.766,7.597,12.766,14.75c0,8.04-6.055,14.973-18.813,14.973
			c-5.306,0-10.76-1.479-13.496-3.177L142.542,115.379z"/>
	</g>
	<path display="inline" fill="#FFFFFF" d="M100.952,2.365c-54.06,0-98.042,43.982-98.042,98.042
		c0,54.061,43.982,98.042,98.042,98.042c54.063,0,98.048-43.981,98.048-98.042C199,46.347,155.016,2.365,100.952,2.365z
		 M100.952,191.782c-23.123,0-44.2-8.7-60.312-22.913l32.379-38.117h-8.746l-28.512,33.566
		c-16.173-16.492-26.186-39.045-26.186-63.912c0-50.384,40.991-91.375,91.376-91.375c19.549,0,37.639,6.223,52.516,16.716
		l-36.346,42.789h8.744l32.947-38.785c20.446,16.769,33.521,42.211,33.521,70.655C192.334,150.791,151.341,191.782,100.952,191.782z
		"/>
</g>
<g id="finger">
	
		<image display="none" overflow="visible" width="300" height="300" xlink:href="A1EF8A1E.jpg"  transform="matrix(0.4975 0 0 0.4975 19.7085 38.2085)">
	</image>
	<g id="finger_1_">
		<g>
			<g>
				<path fill="#FFFFFF" d="M109.011,35.72c0.914,0,1.828-0.348,2.526-1.046l7.145-7.146c1.397-1.396,1.397-3.656,0-5.052
					c-1.396-1.396-3.657-1.396-5.051,0l-7.145,7.146c-1.397,1.395-1.397,3.656,0,5.052C107.182,35.372,108.095,35.72,109.011,35.72z
					"/>
				<path fill="#FFFFFF" d="M110.06,65.348c-1.394,1.396-1.394,3.656,0,5.053l3.572,3.573c0.7,0.697,1.613,1.048,2.527,1.048
					s1.828-0.351,2.526-1.048c1.396-1.397,1.396-3.657,0-5.053l-3.572-3.573C113.717,63.952,111.457,63.952,110.06,65.348z"/>
				<path fill="#FFFFFF" d="M112.587,50.01c0,1.976,1.598,3.573,3.572,3.573h17.864c1.975,0,3.573-1.598,3.573-3.573
					c0-1.975-1.599-3.573-3.573-3.573h-17.864C114.185,46.437,112.587,48.035,112.587,50.01z"/>
				<path fill="#FFFFFF" d="M91.149,28.574c1.974,0,3.573-1.597,3.573-3.573V7.137c0-1.975-1.599-3.573-3.573-3.573
					s-3.573,1.598-3.573,3.573v17.865C87.576,26.977,89.175,28.574,91.149,28.574z"/>
				<path fill="#FFFFFF" d="M70.758,34.673c0.699,0.698,1.612,1.046,2.526,1.046c0.914,0,1.828-0.348,2.526-1.046
					c1.396-1.396,1.396-3.657,0-5.052l-7.146-7.146c-1.396-1.396-3.656-1.396-5.052,0c-1.396,1.396-1.396,3.656,0,5.052
					L70.758,34.673z"/>
				<path fill="#FFFFFF" d="M67.185,65.348l-3.572,3.573c-1.396,1.396-1.396,3.656,0,5.053c0.699,0.697,1.612,1.048,2.526,1.048
					c0.913,0,1.829-0.351,2.526-1.048l3.573-3.573c1.396-1.396,1.396-3.656,0-5.053C70.841,63.952,68.581,63.952,67.185,65.348z"/>
				<path fill="#FFFFFF" d="M48.274,53.583h17.865c1.974,0,3.572-1.598,3.572-3.573c0-1.975-1.598-3.573-3.572-3.573H48.274
					c-1.974,0-3.573,1.598-3.573,3.573C44.701,51.985,46.3,53.583,48.274,53.583z"/>
				<path fill="#FFFFFF" d="M148.314,92.887h-3.391c-2.191-2.019-5.607-3.573-10.9-3.573h-10.536
					c-2.191-2.019-5.607-3.573-10.9-3.573h-7.146V50.01c0-3.531,0-14.29-14.292-14.29c-14.292,0-14.292,10.759-14.292,14.29v71.458
					c0,1.779-0.269,2.757-0.456,3.17c-0.684-0.135-2.978-0.936-7.737-5.696c-8.75-8.749-18.427-12.127-25.889-9.044
					c-5.59,2.317-8.793,7.838-8.793,15.144c0,0.949,0.378,1.856,1.047,2.526c11.085,11.081,21.259,25.066,27.914,38.376
					c10.139,20.278,28.044,30.559,53.216,30.559c32.255,0,50.021-17.768,50.021-50.023v-28.581
					C166.18,102.234,159.503,92.887,148.314,92.887z M116.159,189.355c-22.243,0-37.995-8.955-46.824-26.611
					c-6.762-13.523-16.973-27.696-28.151-39.111c0.306-3.582,1.818-6.093,4.325-7.135c3.456-1.421,10.281-0.324,18.104,7.496
					c4.179,4.179,10.349,9.485,15.616,7.307c2.179-0.9,4.774-3.343,4.774-9.833V50.01c0-3.991,0-7.146,7.146-7.146
					s7.146,3.155,7.146,7.146v53.597c0,7.146,3.572,10.718,7.146,10.718v-10.718v-10.72h7.146c6.573,0,7.107,3.062,7.145,3.573
					v3.573c0,7.146,3.573,10.719,7.146,10.719v-10.719V96.46h7.146c6.574,0,7.109,3.063,7.146,3.573
					c0,7.146,3.573,10.719,7.145,10.719v-10.719c9.673,0,10.72,12.488,10.72,17.864v28.581
					C159.034,174.93,144.609,189.355,116.159,189.355z"/>
			</g>
		</g>
	</g>
</g>
<g id="arrow" display="none">
	
		<image overflow="visible" width="512" height="512" xlink:href="LeftRightArrow-512.png"  transform="matrix(0.3721 0 0 0.3721 3.6177 5.626)">
	</image>
	<g id="Layer_5" display="inline">
	</g>
	<path display="inline" fill="#FFFFFF" d="M32.739,43.831h101.907l-16.475-16.206c-5.874-5.818-5.919-15.297-0.102-21.172
		c5.817-5.875,15.296-5.919,21.172-0.102l40.691,40.028c5.787,5.787,7.072,17.545,0.28,24.339l-40.693,40.029
		c-5.874,5.816-15.353,5.77-21.172-0.104c-5.816-5.875-5.771-15.353,0.104-21.171l15.961-15.699H32.739
		c-8.268,0-14.97-6.703-14.97-14.971C17.769,50.534,24.472,43.831,32.739,43.831z"/>
	<path display="inline" fill="#FFFFFF" d="M169.839,124.699H67.931l16.475-16.206c5.874-5.819,5.92-15.296,0.103-21.172
		c-5.818-5.874-15.297-5.92-21.172-0.103l-40.692,40.027c-5.787,5.788-7.072,17.545-0.28,24.34l40.693,40.028
		c5.874,5.817,15.352,5.771,21.171-0.104c5.817-5.875,5.772-15.354-0.103-21.171l-15.961-15.7h101.674
		c8.268,0,14.97-6.702,14.97-14.97S178.106,124.699,169.839,124.699z"/>
</g>
<g id="US" display="none">
	<g display="inline">
		<path fill-rule="evenodd" clip-rule="evenodd" fill="#FFFFFF" d="M198.25,50.332c-0.247-0.085-0.406,0.01-0.499,0.255
			c-0.188,0.489-0.934-0.239-1.083-0.463l-0.03-1.343l-1.402,0.03l-1.97-6.478c-0.31-0.334-0.965-0.353-0.993-0.377
			c-0.915-0.825-1.327,0.401-1.903,0.556c-0.061,0.027-0.061,0.397-0.238,0.448c-0.921,0.265-0.958-0.372-1.194-0.896l-0.358,0.119
			l-1.313,3.522c0,0.194-0.018,0.609-0.004,0.774c0.142,1.636-0.325,1.061-0.325,1.764c0,1.644,0.523,0.951,0.508,1.612l-0.926,1.82
			l-0.179,1.851c-0.119,0.01-0.619-0.27-0.935-0.044c-0.46,0.367-0.094,0.735-0.645,0.122c-0.195-0.218-0.496,1.401-0.496,1.506
			l-5.64,1.488l-2.39,0.725l-2.824,0.506c-0.056,0.16-0.955,1.314-1.134,1.54c-0.688,0.866-0.896,1.508-1.159,1.816
			c-0.707,0.829-2.768,1.438-0.472,2.232c0.08,0.231-0.377,1.004-0.187,1.272c1.119,1.571-1.343,0.627-1.473,2.119
			c-0.021,0.238-2.728,0.895-2.825,0.875c-1.51-0.309-3.324,0.125-4.771,0.717c0.139,0.404,0.828,1.472,0.881,1.726
			c0.946,0.196-1.929,2.994-2.486,3.558c-0.014,0.014-0.024,0.025-0.036,0.037c-0.015,0.021-0.032,0.041-0.045,0.047
			c-0.598,0.297-0.93,0.924-0.989,0.954c-0.811,0.403-0.584,0.438-1.162,0.858c-0.153,0.105-0.883,0.445-0.888,0.453
			c-0.3,0.404-1.641,0.439-1.892,1.164c-0.433,1.252-3.945,2.032-3.96,2.021c-2.081-1.481-1.965,0.502-3.151-0.987
			c-0.28-0.908,0.428-1.622,0.494-1.718c0-0.588-0.146-1.453,0.664-1.518c0.363-1.415-0.236-0.942,1.138-1.754l-0.048-1.518
			c0-0.609-0.291-0.75-0.284-0.9c0.023-0.58-1.181-3.822-1.518-3.793c-1.588,0.135-1.285,0.667-1.43,0.841
			c-0.181,0.216-0.903,1.433-0.925,1.451c-0.892,0.761-1.719-1.192-1.016-1.549c1.235-0.628,0.597-0.191,0.865-1.493
			c1.224-0.282,0.554-1.665,0.561-1.759c0.114-1.441-0.899-1.203-0.651-1.9c0.064-0.366,0.523-0.196-0.06-0.707
			c-0.392-1.256-0.809-0.398-1.458-0.921c-0.599-0.482-2.598-0.877-2.623-0.897c-0.738-0.556-1.656-0.15-1.656,0.818
			c0,0.485,1.748,1.043-0.2,1.043c-0.96,0,0.145,2.545-0.652,2.612c-1.422,0.119-0.656-0.403-0.565-1.142
			c0.211-1.714,0.031-0.287-0.443,0.039c-1.373,0.943-0.432,0.359-0.849,1.564c-0.919,0.212-0.263,1.885-0.664,2.573
			c-0.543,0.929-0.044,1.782-0.241,2.117c-0.268,0.454-0.022,1.47,0.021,1.517c0.53,0.606,1.383,2.706,1.426,2.751
			c0.272,0.272-0.344,2.949-0.422,3.015c-0.754,0.643-0.105,1.781-1.296,2.263c-0.836-0.066-0.494,1.611-2.392,0.517
			c-0.136-0.391-0.4-0.045-0.459-0.517c-0.239-1.947-1.028-1.018-1.028-3.104c0.038-0.42-0.334-2.911-0.356-2.94
			c-0.616-0.813,0.456-2.402,0.298-2.627c-0.438-0.612,0.325-2.717,0.297-2.787c-0.548-1.328,1.351-3.484,1.351-4.855
			c0-0.265-1.55,2.073-1.87,2.473c-0.044,0.055-1.344,2.132-1.301,1.045c0.049-1.247,0.572-1.731,1.239-2.626
			c0.175-0.178,1.242-2.448,1.262-2.793c0.039-0.675,0.523-1.352,0.563-0.812c0.047,0.648,0.854-0.136,1.069-0.164
			c0.075-0.01,0.755,0.831,0.781,0.164c0.059-1.43,2.026-0.768,2.28-1.086c1.137-1.422,2.813,0.101,3.421-0.333
			c0.673-0.479,1.363-0.265,2.143-0.231c0.396,0.017-0.367-0.651-0.482-0.754c-0.845-0.759-0.154-0.65-0.285-1.294
			c-0.199-0.979-0.526,0.036-1.807,0.036l-0.645,0.121l-0.563-0.322V55.29c-0.464,0-1.43,0.659-1.812,0.644
			c-2.151-0.084-1.394-0.057-2.816,0.875c-1.52,0.995-1.206,0.359-1.529,0.373c-1.688,0.072-0.966-0.086-1.649-0.396
			c-0.533-0.241-0.496-0.863-1.127-1.042c-2.165-0.618-1.194,0.229-1.821,0.274c-1.284,0.093-0.061-0.712-0.07-1.124
			c-0.015-0.639,0.635-1.277,1.203-1.456c1.219-0.38,0.694-1.074-0.841-0.369c-1.294,0.595-1.031,1.07-1.621,1.405
			c-1.114,0.635,0.412,0.723-1.815,1.405c-0.199,0.519-1.602,0.399-1.638,0.615c-0.161,0.954-0.907,0.23-1.516,1.255
			c-1.049,0.361-0.733-0.166-1.141-0.149c-2.159,0.093-0.215-1.156-0.354-1.531c-0.514,0-3.632,2.211-4.451,1.136
			c0.153-0.513,0.498-0.927,0.606-0.939c0.931-0.107,1.065-0.891,1.279-1c1.067-0.542,1.59-2.411,2.432-2.583
			c0.364-0.075,1.859-0.991,1.891-0.99c0.736,0.031,1.271-0.41,1.855-0.8c-0.033,0-0.136,0.007-0.16-0.005
			c-0.579-0.296-0.354,0.178-1.37-0.032c-0.094-0.456-1.735-0.415-1.757-0.402c-1.147,0.679-0.742-0.818-1.675-0.064
			c-0.883,0.714-0.486,0.765-1.716,0.447c-0.88-0.227-0.361-0.53-0.616-0.52c-0.596,0.023-0.868-0.577-0.995-0.546
			c-0.654,0.153-0.336-0.066-0.701-0.096c-0.408-0.033-1.931-1.022-1.951-1.021c-0.754,0.07-0.656-0.173-0.765-0.194
			c-0.884-0.18-0.198,0.987-2.08,0.541c-0.078-0.761-1.135-0.31-1.292-0.496c-0.339-0.394-0.487,0.003-1.014-0.245
			c-0.73-0.346-0.659-1.19-0.775-1.461c-0.292-0.678,0.139-1.654-0.951-1.632l-0.039,1.808c-2.285,0.013-4.511,0.006-6.695-0.022
			c-7.353-0.094-14.224-0.431-21.18-1.061c-11.295-1.022-22.817-2.817-37-5.598l-3.042-0.608l-17.339-4.59
			c-0.429,0.148,0.38,1.507,0.473,1.858c0,0.064,0.009,0.322,0.004,0.365c-0.045,0.366-0.332,0.142-0.332,1.575
			c0,0.583,0.338,1.053,0.282,1.147c-0.411,0.695-0.779-0.482-0.901-0.719c-0.074,0.005-0.182-0.145-0.182-0.146
			c-0.294-1.068,0.328-0.317,0.328-1.128c-0.175-0.505-0.811,0.735-0.837,0.765c-1.343,0-2.535-0.72-3.752-1.27
			c-0.75-0.338-0.953-0.742-1.232-0.886c-0.122-0.771-0.8-0.661-0.771,0.005c0.031,0.722-0.444,1.549-0.085,1.907
			c0.471,0.471-0.313,3.851,0.659,4.333c1.229,0.61-0.756,0.069-0.756,0.706c0,0.817,1.683,1.138-0.146,1.725
			c-0.549,0-0.144,0.847-0.036,0.838c-0.034,0.434,0.569-0.312,1.213,0.509c-1.347,0.224-2.226,1.583-2.305,2.489
			c-0.175,2.012-1.019,2.44-1.052,2.837c-0.2,2.312-2.756,6.868-4.298,8.74c-0.933,0.269,0.136,1.492-0.216,1.985
			c-0.9,1.264,0.067,2.628,0.071,2.647c-0.856,0.684,0.042,2.195-0.904,3.912c-0.458,0.831-0.111,0.852-1.083,1.631
			c-0.481,0.386,0.157,0.149-0.555,0.521c-0.066,0.034-0.865,1.392-0.444,1.981c0.702,0.985,1.366,3.15,0.601,4.225
			c-0.037,0.051-0.162,1.498-0.313,1.864c-0.098,0.239,1.29,3.305,1.513,3.912c0.348,0.947-0.491,0.507,0.5,1.891
			c1.528,2.136-0.063,1.625,0.37,3.746c0,0.002,0.097,0.173,0.108,0.204c0.827,1.802,1.952,0.671,1.622,2.3
			c-0.136,0.667-1.68,0.263-0.962,2.417c0.687,0.262,1.253,4.167,2.436,5.176c0.075,0.064,0.451,1.455,0.451,1.635
			c0,1.75-1.41,2.627,0.996,3.021c0.655,0.107,1.09,0.786,2.395,0.734c0.692-0.026,0.667,2.258,2.091,2.499
			c0.578,0.099,2.156,0.508,1.369,1.43c-0.019,0.022-0.195,0.079-0.226,0.087c0.181,1.188,1.186-0.572,2.177,1.422
			c0.268,0.542,0.797,0.567,1.003,1.399c0.334,1.343,0.522,0.154,0.522,2.674c0,0.284,0.052,0.692,0.052,1.129l9.701,1.408
			c0.002,0.024-0.385,0.478-0.43,0.529c-0.121,0.14-0.155,0.185-0.132,0.339c0.021,0.141,0.427,0.428,0.517,0.438l12.963,7.553
			l8.118,1.195l3.12,0.349l0.289-2.101l6.374,0.858c0.174,0.024,0.809,0.267,0.901,0.412c0.187,0.293,0.361,0.487,0.476,0.806
			c0.176,0.49,0.046,0.606,0.737,0.808c0.697,0.203,0.425,0.8,0.968,1.226c0.011,0.009,0.377,0.433,0.38,0.437
			c0.111,0.178,1.16,1.363,1.329,1.37c0.293,0.012,0.852,0.216,0.958,0.592c0.165,0.589,0.646,0.17,0.613,0.859
			c-0.011,0.236,0.286,0.599,0.372,0.847c-0.001,0.038,0.27,0.441,0.303,0.729c0.226,1.941-0.419,1.846,1.219,3.42
			c0.416,0.398,0.822,1.105,1.503,1.143c0.502,0.026,0.83,0.968,1.227,1.063c0.235,0.056,0.684,0.355,0.889,0.427
			c0.141,0.038,0.578,0.246,0.695,0.327c0.061-0.042,1.099-1.186,1.153-1.294c0.204-0.405,0.31-0.278,0.357-0.853
			c0.061-0.744,0.818-1.229,1.445-1.42c0.079-0.023,1.071-0.406,1.071-0.406l0.557,0.463c0.684,0.121,1.536,0.063,2.171,0.196
			c0.7,0.146,1.001,0.095,1.519,0.668c0.125,0.141-0.095,0.235,0.487,0.787c0.131,0.125,0.503,0.576,0.639,0.644
			c0.012,0.006,0.013,0.012,0.017,0.022c0.985,0.73,0.411,0.398,0.931,1.188c0.102,0.156,0.324,0.056,0.3,0.755
			c-0.011,0.313,0.432,1.055,0.545,1.426c0.111,0.363,0.646,1.318,0.646,1.536c0,0.616,0.026,0.524,0.69,0.806l0.026,0.023
			c0.108,0.207,0.451,0.645,0.489,0.873c0.012,0.072,0.638,1.077,0.8,1.234c0.659,0.638,0.971,0.351,1.368,1.097
			c0.191,0.358-0.616,1.168,0.004,1.244c0.371,0.046,0.132,0.791,0.062,0.968c-0.118,0.306-0.158,0.173,0.101,0.433l0.129,0.124
			c0.786,0.244,0.568,0.978,0.759,1.613c0.094,0.315,0.278,0.628,0.476,0.901c0.063,0.088,1.514,0.662,1.673,0.698
			c0.508,0.115,0.949,0.085,1.356,0.437c0.037,0.031,0.409,0.374,0.411,0.376c0.775,0.355,1.854,0.015,2.338,0.463
			c0.088,0.082,1.139,0.864,1.254,0.599c0.01-0.02,0.194-0.161,0.194-0.161c0.325-0.813-0.455-3.058-0.743-3.979
			c-0.391-1.253,1.674-3.765,0.561-4.548c-0.62-0.437,1.181-0.145,1.458-1.106c0.169-0.59,1.762-0.682,2.423-1.569
			c0.409-0.549,3.609-1.433,5.219-3.087c0.999-1.025,1.058-0.633,2.122-1.96c0.135-0.169,3.007-1.396,3.403-1.396
			c0.021,0.002,0.271-0.039,0.306-0.052c0.966-0.359,0.079-0.271,1.501-0.445c0.354-0.043,2.191,0.45,2.542,0.629
			c2.021,1.032,2.826,0.03,3.198,0.295c1.13,0.805,1.54-0.509,0.34-0.265c-0.512,0.104-1.311-0.04-0.943-0.609
			c0.397-0.62,0.651,0.478,1.353-0.021c0.455-0.325,1.179,0.622,1.178,0.635c-0.03,0.776,1.702,0.294,1.365,0.864
			c-0.625,1.057,0.277,0.875,0.844,1.387c0.244,0.089,1.508,0.653,1.663-0.296c0.016-0.103,1.462-1.333,1.462-0.038
			c0,1.066,1.114-0.58,0.621-0.663c-0.261-0.044,0.203-0.838,0.254-0.837c0.537,0.021,0.778-0.915,0.751-0.25
			c-0.063,1.473,0.659,0.42,1.78,1.432c0.289,0.26,1.172,0.398,1.25,0.267c0.599-1.012,0.26-0.64,0.08-0.851
			c-0.712-0.835-3.026-0.613-2.688-1.386c0.579-1.319,0.607-0.599,0.899-0.806c1.071-0.765,0.261-0.333,0.261-1.531
			c-0.457,0.191-0.834,0.401-0.834,1c-1.961,0-0.013-1.407,0.042-1.543c0.317-0.293,0.512-0.976,0.695-0.969
			c1.735,0.068,0.917-0.104,1.881-0.306c0.087-0.418,0.812,0.653,2.139,0.069c0.013,0,0.295-0.091,0.438-0.091
			c0.55,0,1.014-0.821,1.026-1.144c0.047-1.161,0.998,0.599,1.07,0.795c0.143,0.378-0.086,0.567-0.357,0.724
			c-0.53,0.306-0.1,0.229,0.168,0.214c0.721-0.041,1.31-0.458,1.549-0.484c1.223-0.531,1.118-0.347,2.354-0.604
			c0.502-0.104,2.108-0.289,2.558-0.034c0.403,0.229,1.066,0.038,2.241,0.752c0.916,0.557,1.707,0.572,1.707,1.852
			c0.367-0.701,1.294,0.146,2.078-0.593c0.253-0.236,1.176-0.932,1.55-0.916c0.378,0.015-0.855-1.65,2.143-0.779
			c1.398,0.405,0.596,0.894,1.902,1.301c0.418,0.13,0.031,0.681,0.634,0.995c1.223,0.638-0.097,0.58,2.224,1.116
			c0.152,0.034,0.507,1.281,0.958,1.386c0.124,0.361,0.208,2.111,0.058,2.431c-0.754,1.616,0.496,3.432,0.555,3.082
			c0.153-0.904,0.667-0.558-0.252-1.1c-0.688-0.407,2.552-0.991,0.613,1.432c-0.03,0.038-0.389,0.43-0.423,0.44
			c0.067,0.358,1.951,2.119,2.226,3.094c0.053,0.186,1.044,2.404,1.338,1.337c0.242-0.877,1.193,0.668,1.155,1.542
			c-0.004,0.107,0.665,1.199,0.78,0.834c0.107-0.348,1.711,0.179,2.106,1.122c0.393,0.935,0.29,0.648,0.518,1.609
			c0.218,0.926,1.652-0.099,1.789-0.099c0.534,0,1.52-0.562,1.485-1.164c-0.021-0.357,0.056-0.894,0.099-1.243
			c0.065-0.533-0.246-0.245,0.321-0.567c0.432-0.246-0.003-1.154-0.003-1.37c0-1.295-0.012-3.482-0.677-4.541
			c-0.306-0.484-0.256-0.714-0.707-1.294c-0.277-0.356-0.584-1.374-0.923-1.584c-0.044-0.335-0.151-0.628-0.382-0.886
			c-0.501-0.557-0.801-1.02-1.003-1.829c0-1.098,0.856-0.481-0.054-1.392c-0.358-0.358-0.848-0.604-1.22-1.188
			c-0.254-0.397-0.942-1.013-1.079-1.466c-0.13-0.431-1.521-2.507-1.822-3.471c-0.17-0.545-1.041-2.228-1.056-2.659
			c-0.004-0.115-0.094-0.374-0.132-0.483l0.01-0.25c0.109-0.464,0.069-0.876,0.146-1.374c0.069-0.448,0.153-0.83,0.223-1.255
			c-0.001-0.003,0.385-1.317,0.388-1.322c0.175-0.351-0.147-0.66-0.046-0.797c0.198-0.261,0.239-0.438,0.338-0.594
			c0.34-0.531,0.343-0.267,0.479-0.979c0.027-0.038,0.432-0.441,0.485-0.499c1.343-1.483,0.608-0.715,0.608-1.775
			c1.709,0,0.777-0.6,1.739-0.795c0.014-0.003,1.048-1.231,1.081-1.328c0.359-1.037,0.952-0.875,0.99-0.984
			c0.374-1.048,0.722-0.514,0.722-1.577c0-0.279,0.254-1.394,0.386-1.553c0.148-0.177,0.647-1.057,0.652-1.057
			c0.096-0.176,0.378-0.522,0.579-0.536c0.037,0.003,0.902-0.246,0.972-0.275c0.625-0.258,0.786-0.173,1.346-0.279
			c0.271-0.787,0.187-1.203,0.706-2.109c0.367-0.641,2.887-2.895,3.485-2.468c0.904,0.643,1.652-1.638,1.195-1.26
			c-0.515,0.427-0.196-0.408-0.837-0.258c-1.189,0.278,0.4-1.402-0.254-1.377c-0.709,0.029-0.505-0.731-0.437-0.651
			c0.67,0.786,2.232,0.08,2.299-0.63c0.08-0.834,1.336-0.938,0.351-1.925c0.236,0.107,0.736-0.108,0.589-0.235
			c-0.565-0.48-1.241-2.22-1.743-3.035l-0.879-1.514c-0.409,0-0.366,0.166-0.661,0.166c-2.186,0,0.049-0.015-0.729-1.126
			c-1.01-1.441-1.17-1.146-0.221-1.146c0.363,0-0.065-1.081-0.08-1.088c-0.662-0.337,0.292-1.093-0.251-1.256
			c-0.336-0.102-1.216-0.675-1.239-0.68c-1.076-0.2-0.414,0.274-1.529-0.405c-0.113,0-0.253-0.058-0.396-0.138
			c0.08-0.037,0.368-0.041,0.381-0.032c0.331,0.237,1.023-0.126,1.258,0.029c0.915,0.599,0.992-0.176,0.902-0.275
			c-0.375-0.417-0.245-0.693-0.357-0.783c-0.264-0.21-0.519-0.546-0.693-0.868c-0.178-0.329-0.078-1.433,0.051-1.615
			c0.317-0.448-0.362-0.89-0.04-1.171c0.258-0.226,0.123-0.698,0.338-0.773c0.617-0.213,0.44-0.328,0.584-0.419
			c0.446-0.284-0.261,0.891-0.283,1.065c-0.135,1.103,0.507-0.219,0.507,1.333c0,0.084-0.053,0.401-0.08,0.419
			c-0.614,0.423-0.173,0.724-0.074,0.532c0.217-0.427,0.542,0.332,0.371,0.417c-0.362,0.18-0.322,0.822-0.246,0.914
			c0.391,0.478,0.272,0.686,0.916,0.686c0.123,0,0.788-0.104,0.805-0.095c0.535,0.316,0.181,1.263,0.994,1.084
			c0.123,0.312-0.079,1.565-0.322,1.703c-0.293,0.166-0.252,0.994-0.205,1.324c0.323,2.229,0.699,0.589,0.747,0.545
			c0.604-0.553,0.294-2.507,0.47-2.719c0.35-0.419,0.633-0.942,0.808-1.488c0.071-0.217,0.123-0.438,0.156-0.659
			c0.115-0.771,0.042-0.61,0.042-1.352l-0.475-1.564c-0.31-0.107-0.099,0.044-0.6-0.208c-0.195-0.098-0.784-0.869-0.814-1.124
			c-0.076-0.616-0.18-0.812-0.665-1.085c-0.471-0.264-0.896-1.216-0.283-1.216c0,0.122,0.037,0.169,0.056,0.262
			c0.073,0.359,0.27,0.367,0.387,0.509c0.346,0.416,0.545,0.571,1.068,0.724c0.528,0.155,0.623,0.248,1.202,0.202
			c0.367-0.03-0.003,0.479-0.003,0.619c0,0.18-0.13,0.705,0.173,0.499c0.674-0.46,0.391-1.448,0.641-1.616
			c0.225-0.153,1.031-1.62,1.084-1.901c0.086-0.249,0.433-1.241,0.316-1.413c-0.255-0.375-0.153-1.289-0.153-1.769
			c0-0.815,0.037-0.392-0.248-0.962c-0.146-0.289-0.268,0.016-0.469,0.01c-0.437-0.011-0.497,0.09-0.423-0.23
			c0.133-0.027,0.632-0.568,0.627-0.677c0.323,0,1.597-0.24,1.758-0.381c0.268-0.234,1.442-0.43,1.516-0.768
			c0.027-0.125,0.558-0.364,0.673-0.409c0.328-0.126,0.422-0.372,0.603-0.407c0.36-0.072,0.488-0.394,0.722-0.524
			c0.003-0.002,0.524-0.518,0.527-0.52c0.465-0.304-0.561-0.629-0.664-0.563c-0.465,0.298-0.493,0.739-1.166,0.951
			c-0.656,0.207-0.885,0.58-1.558,0.683c-0.328,0.05-0.433-0.072-0.71-0.072c-0.303,0-0.87,1.171-1.261,0.909
			c-0.288-0.193,0.165-0.521,0.26-0.639c0.229-0.286,0.102-0.286-0.012-0.418c0.061,0.005,1.597-1.07,1.602-1.077
			c1.006-1.282,0.675-0.357,1.046-0.578c0.19-0.113,1.333-0.487,1.35-0.511c0.291-0.414,1.848-0.528,1.885-0.872
			c0.02,0,0.221-0.037,0.244-0.044c0.338-0.091,0.195-0.102,0.471-0.252c0.24-0.13,0.371-0.301,0.529-0.499
			c0.182-0.229,0.127-0.164,0.42-0.216c0.346-0.063,0.3-0.242,0.587-0.385c0.034,0.029,0.426,0.043,0.479-0.184
			c0.146-0.623-0.255-0.675,0.64-1.003c0.465-0.17,0.109,0.858,0.562,0.557c0.086-0.058-0.024-0.104,0.204-0.196
			c0.046-0.018,0.645-0.457,0.843-0.495c0.125-0.023,0.154-0.114,0.49-0.137c0.001,0,0.523-0.157,0.523-0.235
			c0-0.208-0.227-1.32-0.426-1.389c0,0.7-0.003,0.874-0.601,1.237c-0.178,0.108-0.983,0.092-1.063-0.138
			c-0.189-0.026-0.419-0.796-0.688-1.02c-0.481-0.403-0.278-0.73-1.015-0.686c-0.02,0.002-0.146,0.128-0.223,0.139
			c-0.452-0.259-0.285-1.113-0.068-1.471c0.271-0.504,0.431-0.46-0.196-1.093c-0.007-0.006-0.199-0.314-0.202-0.324l0.205-1.097
			c0.455-0.681,0.315-1.875,0.466-2.36c0-0.251,0.414-0.424,0.232-0.708c-0.293-0.454,0.512-1.204,0.655-0.925
			c0.248,0.476,1.684-0.677,1.68-0.754c-0.049-1.229,1.073-0.131,0.928-1.313c-0.162-1.329,0.147-0.635,0.147-1.374l-0.419-0.298
			l0.508-0.299c0.076,0.02,0.127,0.045,0.159,0.119c0.447,0.993,0.678-0.017,0.678,1.165c1.087,0-0.373-1.228,0.8-1.631
			c0.125-0.043,0.751-0.757,0.814-0.249c0.103,0.833,0.597-0.097,0.87-0.288c0.292-0.204,1.257-1.326,1.307-1.324
			C199.259,52.972,199.03,50.869,198.25,50.332z"/>
		<path fill-rule="evenodd" clip-rule="evenodd" fill="#FFFFFF" d="M34.85,149.283l0.077-18.478
			c-3.343-1.915-1.405-0.33-3.091-0.674c-0.495-0.101,0.205-0.612-1.286-0.247c-0.235,0.058-0.825-1.122-2.412-1.054
			c-1.34,0.057-0.158-2.015-1.774-1.034c-0.397,0.241-0.187-1.201-1.436-1.25c-0.009-0.001-1.683,1.308-1.862,0.443
			c-0.558-0.194-0.316,0.713-1.774,0.415c-1.535-0.313-0.363,1.856-3.03,1.856c-0.661,0-0.958,0.06-1.542,0.309
			c-0.007,0.221,1.146,1.897,1.11,2.778c-0.039,0.989,0.83,0.655,0.735,1.42c-0.061,0.491,1.638,2.559-1.043,1.049
			c-0.728-0.41,1.066-1.443-1.487-1.116c-0.142,0.018,0.131,0.691-0.689,0.206c-0.023-0.014-2.715-0.317-1.445,0.766
			c0.511,0.436,0.478,1.48,0.53,2.12c0.039,0.482,2.816,1.508,3.786,0.818c0.556-0.396,0.369,2.515-0.51,2.515
			c-1.558,0-0.626-0.455-1.991,0.354c-0.167,0.1-0.556-1.494-1.852,0.141c-0.027,0.033-0.404,0.307-0.416,0.308
			c-0.256,0.565-2.217,1.396-0.674,2.485c0.485,0.342-0.746,1.079-0.746,1.095c0,0.025,0.342,0.78,0.416,0.987
			c0.861,2.418,2.636-0.867,2.171,1.414c-0.084,0.412,0.658,0.644-0.124,0.803c-0.067,0.014-0.781,2.012,0.391,1.317
			c0.278-0.164,0.646-0.107,0.91-0.017c0.166,0.429,0.886,0.271,1.173,1.421c0.058,0.231,0.175-0.494,0.257-0.73
			c0.664-0.23,0.09,0.966,1.718,0.051c-0.195,0.624-1.383,2.962-1.975,2.962c-0.645,0-0.219,0.783-0.741,0.741
			c-0.092,0.262-1.48-0.199-1.884,0.595c-0.507,0.996-1.053-0.338-1.857,0.268c-0.4,0.301-0.538-0.097-0.806,0.428
			c-0.22,0.432-1.787,0.745-2.174,0.536c-0.528-0.285-1.596,0.439-0.804,0.767c0.431,0.178,0.124-0.438,0.875-0.153
			c1.407,0.534,0.868-0.251,2.107-0.202c0.179,0.007,1.144-0.552,1.373-0.09c0.229,0.46,0.802-0.582,1.556-0.47
			c0.227,0.034-0.254,0.507,0.563-0.018c0.173-0.112,1.398,0.335,1.277-0.484c-0.005-0.031-0.674-0.328,0.367-0.413
			c0.019-0.002,0.944-0.272,1.25-0.335c0.372-0.076,3.268-1.716,3.436-1.947c0.172-0.235,1.503-0.961,0.82-1.365
			c-0.008-0.005-0.677-0.101-0.356-0.696c0.219-0.406,1.103-0.23,1.752-1.213c0.139-0.211,0.635-0.879,0.806-1.002
			c0.213-0.154-0.003-0.241,0.578-0.42c0.007-0.003,1.525-0.932,1.606-0.272c0.016,0.127,0.465,0.602-0.423,0.421
			c-0.037-0.009-0.556-0.612-1.103,0.223c-0.122,0.188,0.004,0.668-0.604,1.215c-0.044,0.039-0.342,0.657,0.177,0.677
			c0.023,0.001,0.414,0.378-0.362,0.474c-0.76,0.094-0.083,1.076,1.204,0.288c0.561-0.344,0.712-0.521,1.156-0.965
			c0.24-0.239,0.539,0.399,1.076,0.018c0.292-0.207,0.478,1.269,1.002,0.021c0.159-0.379,0.602-0.381-0.256-0.444
			c-0.025-0.002-0.39-0.761-0.223-0.896c0.337-0.276,1.591-0.853,1.561,0.078c-0.022,0.695,0.911,0.715,1.297,1.051
			c0.411,0.357,0.694,0.406,1.157,0.406c0.402,0.508,1.234-0.087,2.116,0.47c1.013,0.639,1.898-0.35,1.898,0.06
			c0,0.494-0.481,0.632,0.002,0.883c0.581,0.304,1.436,0.605,1.816,1.128c0.321,0.438,0.916,0.917,1.471,0.917
			c0.616,0-0.732,0.42,0.188,0.899c0.351,0.184,0.326,1.572,0.788,1.555c0.634-0.025,1.159,2.318,1.115,0.446
			c-0.006-0.292,0.262-0.798,0.36,0.329c0.041,0.459,0.363,1.248,0.651,0.34c0.151-0.479,0.337,0.146,0.139,0.424
			c-0.162,0.229,0.188,0.606,0.188,0.606c0.137,0.715-0.498,0.754,0.223,0.807c0.116,0.009,1.393,2.464,0.745,0.644
			c-0.197-0.555,0.166,0.012,0.483,0.187c0.563,0.308,0.64,0.459,0.502-0.719c-0.023-0.195-0.584-0.979,0.462-0.316
			c0.178,0.113,0.961,0.924,0.984,0.933c0.684-0.995,0.573-0.983,0.365-2.337c-0.007-0.053-0.035-0.244-0.085-0.256l-2.174-0.809
			c-0.421-0.711-0.239-0.921-0.992-1.442c-0.111-0.077-0.465-1.416-1.009-1.773c-0.301-0.197-0.02-0.159-0.725-0.527
			c-0.014-0.007-0.238-0.476-0.755-0.811c-0.368-0.238,0.049-1.588-1.378-0.722c-0.17,0.102,0.101,0.631-0.793,1.237
			c-0.81,0.549-0.666-0.178-0.725-0.263c-0.16-0.225-0.092-0.475-0.621-0.722c-0.143-0.066-0.752-0.638-0.752-0.972
			c0-1.292-0.938,0.285-1.617-0.278C35.217,149.431,34.896,149.299,34.85,149.283L34.85,149.283z M9.32,136.135
			c0.021,0.057,0.336,0.426,0.331,0.455c-0.094,0.02,0.202,0.218,0.261,0.244c0.057,0.024,0.55,0.22,0.562,0.244
			c0.036,0.074,0.099,0.286,0.169,0.381c0.063,0.081,0.111,0.299,0.223,0.457c0.123,0.174,0.219,0.498-0.138,0.383
			c-0.247-0.078-0.449-0.023-0.514-0.352c-0.001-0.002-0.206-0.318-0.239-0.411c-0.085-0.241-0.334-0.458-0.574-0.506
			c-0.256-0.051-0.445,0.162-0.404-0.448c0.014-0.222,0.231-0.31,0.231-0.409C9.228,136.116,9.308,136.102,9.32,136.135
			L9.32,136.135z M9.943,144.232c0.004-0.037,0.022-0.021,0.093-0.021c0.167,0,0.541,0.161,0.764,0.18
			c0.184,0.015,0.271,0.085,0.367,0.107c0.152,0.034,0.192,0.077,0.291,0.107c0.199,0.063,0.194,0.357,0.116,0.457
			c-0.143,0.186-0.167,0.446-0.336,0.439c-0.209-0.011-0.37,0.086-0.561-0.033c-0.083-0.053-0.359-0.419-0.526-0.554
			C10.043,144.826,9.933,144.315,9.943,144.232L9.943,144.232z M5.393,156.521c0.157-0.305,0.144-0.12,0.158-0.462
			c0.011-0.271,0.151-0.215,0.41-0.223c0.132-0.004,0.381,0.244,0.486,0.324c0.087,0.067,0.108,0.357-0.071,0.439
			c-0.111,0.051-0.012,0.038-0.186,0.078c-0.085,0.019-0.759,0.163-0.791,0.136c-0.05-0.046-0.345-0.016-0.046-0.24
			C5.384,156.549,5.381,156.544,5.393,156.521L5.393,156.521z M4.629,156.288c0.065,0.128,0.079,0.109,0.007,0.241
			c-0.055,0.101-0.125,0.119-0.259,0.096c-0.143-0.024-0.084-0.161-0.387,0.006c-0.044,0.024-0.234,0.024-0.43,0.117
			c-0.07,0.034-0.226,0.008-0.426,0.094c-0.002,0.001-0.313,0.061-0.335,0.036c-0.016-0.018-0.02-0.06,0.002-0.082
			c0.161-0.18,0.363-0.363,0.612-0.406c0.145-0.023,0.458-0.277,0.753-0.227C4.258,156.18,4.606,156.288,4.629,156.288
			L4.629,156.288z M23.297,151.622c0.12,0.003,0.055,0.123,0.226,0.294c0.603,0.603-1.61,0.858-0.745,0.825
			c0.386-0.016,0.917,1.255-0.196,1.482c-0.536,0.109-1.612,0.751-1.718,0.232c-0.033-0.16-0.164,0.121-0.164-0.795
			c0-0.429,0.733-0.945,1.119-1.08C22.981,152.179,22.472,151.603,23.297,151.622z"/>
		<path fill-rule="evenodd" clip-rule="evenodd" fill="#FFFFFF" d="M55.146,144.076c-0.374,0.847-1.405,0.38-1.896-0.064
			l0.097-0.643l0.835-0.48l0.964,0.127l0.161,0.515L55.146,144.076L55.146,144.076z M69.671,154.201
			c0.182-0.164,0.482,0.018,0.886-0.744c0.039-0.072,0.138-0.188,0.107-0.282l-0.012-0.025c-0.041-0.096-0.561-0.563-0.323-0.869
			c0.035-0.044,0.209-0.198,0.295-0.198l2.332,1.109l0.412,0.229c0.563,0.253,0.495,0.724,0.811,1.182
			c0.123,0.176,0.04,0.223,0.313,0.53c0.101,0.112,0.468,0.292,0.484,0.335c0.319,0.032,0.264,0.487-0.025,0.631
			c-0.003,0.001-0.437,0.327-0.488,0.323c-0.251,0.162-0.512,0.305-0.812,0.354c-0.003,0-0.044,0.093-0.294,0.06
			c-0.117-0.017-0.228-0.205-0.486-0.002c-0.115,0.09-0.577,0.465-0.64,0.584l-0.541,0.781l-0.128,0.101l-0.128,0.07
			c-0.364,0.086-0.389-0.19-0.794-0.33c-0.025-0.118-0.251,0.016-0.23-0.683c0.01-0.302-0.143-0.567-0.003-1.04
			c0.114-0.385-0.35-1.244-0.635-1.477C69.674,154.758,69.617,154.328,69.671,154.201L69.671,154.201z M67.501,150.114l-0.767-1.146
			l0.447-0.549c0.267,0.092,0.399,0.298,0.7,0.415c0.088,0.034,0.238,0.155,0.396,0.15c0.191-0.006,0.779,0.086,0.938,0.225
			c0.095,0.083,0.188,0.084,0.391,0.276c0.004,0.004,0.211,0.148,0.222,0.147c0.066,0.092,0.399,0.297,0.112,0.508
			c-0.231,0.171-0.642,0.307-0.923,0.366c-0.188,0.041-0.569,0.171-0.731,0.171c-0.292,0-0.342-0.197-0.578-0.35
			C67.645,150.288,67.524,150.192,67.501,150.114L67.501,150.114z M65.301,148.998c0.245,0.027,0.406,0.009,0.635,0.095
			c0.132,0.052,0.255,0.267,0.338,0.388c0.059,0.088-0.01,0.337-0.247,0.329c-0.294-0.009-0.252,0.565-0.701-0.264
			c-0.096-0.178-0.156-0.361-0.047-0.542C65.286,148.993,65.28,148.993,65.301,148.998L65.301,148.998z M66.684,148.016
			c-0.079,0.202-0.165,0.452-0.411,0.462c-0.258,0.012-0.216,0.107-0.608,0.032c-0.365-0.069-0.379,0.033-0.734-0.144
			c-0.192-0.096-0.708-0.17-0.708-0.377c0-0.148,0.021-0.233,0.186-0.201c0.117,0,0.278,0.108,0.522,0.142
			c0.124,0.018,0.243,0.246,0.483,0.036C65.476,147.911,66.569,147.976,66.684,148.016L66.684,148.016z M59.915,146.397
			c-0.093-0.066-0.086-0.574,0.148-0.585c0.083-0.003,0.154-0.075,0.202-0.135l0.813-0.423l0.88,1.479
			c0.138,0.18,0.702,0.349,0.54,0.557c-0.25,0.322-0.529,0.121-0.908,0.134c-0.118,0.004-0.247-0.226-0.31-0.222
			c-0.191,0.138-0.574,0.249-0.742,0.036c-0.169-0.217-0.074,0.021-0.274-0.355c-0.029-0.054-0.285-0.425-0.335-0.461
			C59.921,146.416,59.917,146.405,59.915,146.397L59.915,146.397z M51.772,144.044c-0.762-0.018-0.929,1.361-0.149,0.622
			C51.771,144.525,52.178,144.054,51.772,144.044z"/>
	</g>
</g>
<g id="traveler" display="none">
	
		<image overflow="visible" width="300" height="300" xlink:href="Arrival-Icon.png"  transform="matrix(1.1067 0 0 1.1067 20.625 -66.8755)">
	</image>
	<g>
		<path display="inline" fill-rule="evenodd" clip-rule="evenodd" fill="#3E81C3" d="M211.685,87.525
			c6.381,3.584,8.646,11.661,5.063,18.042l-53.141,94.595c-3.583,6.38-11.661,8.647-18.042,5.063l0,0
			c-6.38-3.584-8.646-11.661-5.063-18.042l53.142-94.595C197.227,86.208,205.305,83.941,211.685,87.525L211.685,87.525z"/>
		<path display="inline" fill-rule="evenodd" clip-rule="evenodd" fill="#3E81C3" d="M191.375,86.044
			c6.486-3.389,14.49-0.876,17.879,5.61l50.23,96.172c3.388,6.484,0.877,14.491-5.61,17.879l0,0
			c-6.486,3.387-14.49,0.875-17.88-5.611l-50.229-96.172C182.376,97.438,184.889,89.433,191.375,86.044L191.375,86.044z"/>
		<path display="inline" fill-rule="evenodd" clip-rule="evenodd" fill="#3E81C3" d="M215.125,69.625
			c-0.876-37.001-31.502-20.624-34.5-15.5l-28.252,47.784c-2.998,5.123-9.584,6.847-14.707,3.847l0,0
			c-9.291-5.381-4.885-19.327,5.209-34.131c15-22,26.25-38.5,38.75-45.5s31.5-7.5,45.5,19L215.125,69.625z"/>
		<path display="inline" fill-rule="evenodd" clip-rule="evenodd" fill="#3E81C3" d="M224.516,103.103
			c0.395,10.467-8.709,19.307-20.336,19.744l-9.119,0.345c-11.626,0.438-21.369-7.692-21.764-18.159l-2.309-61.276
			c-0.395-10.466,8.709-19.307,20.336-19.745l9.119-0.343c11.626-0.438,21.369,7.692,21.764,18.158L224.516,103.103z"/>
		<path display="inline" fill-rule="evenodd" clip-rule="evenodd" fill="#3E81C3" d="M273.875,73.125c-2.25,10.5-25.666,8-41.416-1
			c-19.805-11.317-32.488-17.136-30.834-22.75l-2.5-7.5c1.654-5.614-11.029-22.71,4.834-18.083c20,5.833,17.484,14.803,35.5,25.5
			C260.792,61.958,277.201,57.601,273.875,73.125z"/>
	</g>
	<path display="inline" fill-rule="evenodd" clip-rule="evenodd" fill="#FFFFFF" d="M154.358,69.848
		c-10.689-6.347-12.526-11.947-19.003-16.362c-2.72-2.191-7.026-3.575-11.558-4.207c11.146-1.968,19.611-11.691,19.611-23.4
		c0-13.127-10.643-23.77-23.771-23.77c-13.126,0-23.77,10.642-23.77,23.77c0,11.311,7.902,20.77,18.485,23.173
		c-2.908,0.285-5.463,0.919-7.194,1.889C96.957,56.654,87.776,70.12,75.534,88.076c-7.396,10.848-11.045,21.127-6.225,26.293
		c-0.047,0.072-0.103,0.133-0.145,0.209l-9.607,16.869c-0.191-0.162-0.395-0.316-0.62-0.445l-13.453-6.998
		c-1.95-1.125-4.446-0.455-5.572,1.494l-28.223,49.166c-1.125,1.951-0.456,4.445,1.498,5.572l11.084,5.768
		c-0.784,1.291-1.241,2.805-1.241,4.428c0,4.732,3.836,8.568,8.57,8.568c4.732,0,8.568-3.836,8.568-8.568
		c0-1.844-0.587-3.547-1.579-4.945c0.091-0.127,0.188-0.244,0.266-0.381l37.791-66.352c0.31-0.555,0.473-1.148,0.52-1.746
		c2.475-0.414,4.753-1.881,6.12-4.217l15.963-26.999l1.113,29.546c0.154,4.096,2.072,7.738,5.06,10.398l-31.825,56.648
		c-2.924,5.207-1.075,11.801,4.133,14.725c5.207,2.926,11.8,1.074,14.724-4.131l30.629-54.523l28.448,54.469
		c2.767,5.293,9.299,7.342,14.592,4.578c5.295-2.764,7.344-9.299,4.579-14.59l-31.381-60.084c1.898-2.602,2.967-5.727,2.841-9.063
		l-1.112-29.561c2.353,1.314,4.891,2.732,7.596,4.278c12.855,7.345,31.965,9.384,33.801,0.816
		C185.161,76.63,171.77,80.185,154.358,69.848z M31.6,193.186c-1.522,0-2.754-1.232-2.754-2.754s1.232-2.756,2.754-2.756
		c1.521,0,2.754,1.234,2.754,2.756S33.121,193.186,31.6,193.186z"/>
</g>
</svg>
